<?xml version='1.0' encoding='UTF-8'?>
<osm version='0.6' generator='JOSM'>
  <node id='-132323' visible='true' lat='-34.41821183633' lon='150.49765032611'>
    <tag k='addr:housenumber' v='12' />
    <tag k='addr:street' v='Station Road' />
  </node>
  <node id='-132325' visible='true' lat='-34.41892707009' lon='150.49556735242'>
    <tag k='addr:housenumber' v='19' />
    <tag k='addr:street' v='Knowle Road' />
  </node>
  <node id='-132327' visible='true' lat='-34.41956788169' lon='150.49653963813'>
    <tag k='addr:housenumber' v='7' />
    <tag k='addr:street' v='Knowle Road' />
  </node>
  <node id='-132329' visible='true' lat='-34.41879074088' lon='150.49841914991'>
    <tag k='addr:housenumber' v='22' />
    <tag k='addr:street' v='Station Road' />
  </node>
  <node id='-132331' visible='true' lat='-34.42675323182' lon='150.49946170504'>
    <tag k='addr:housenumber' v='84' />
    <tag k='addr:street' v='Aylmerton Road' />
  </node>
  <node id='-132333' visible='true' lat='-34.42448391215' lon='150.49709805287'>
    <tag k='addr:housenumber' v='61' />
    <tag k='addr:street' v='Aylmerton Road' />
  </node>
  <node id='-132335' visible='true' lat='-34.42522809521' lon='150.49224123149'>
    <tag k='addr:housenumber' v='12' />
    <tag k='addr:street' v='Aylmerton Road' />
  </node>
  <node id='-132337' visible='true' lat='-34.41949558421' lon='150.49526222577'>
    <tag k='addr:housenumber' v='10' />
    <tag k='addr:street' v='Chalkerville Road' />
  </node>
  <node id='-132339' visible='true' lat='-34.41925970215' lon='150.49607379469'>
    <tag k='addr:housenumber' v='13' />
    <tag k='addr:street' v='Knowle Road' />
  </node>
  <node id='-132341' visible='true' lat='-34.41905424915' lon='150.49576322581'>
    <tag k='addr:housenumber' v='17' />
    <tag k='addr:street' v='Knowle Road' />
  </node>
  <node id='-132343' visible='true' lat='-34.41776962905' lon='150.49668681599'>
    <tag k='addr:housenumber' v='2' />
    <tag k='addr:street' v='Station Road' />
  </node>
  <node id='-132345' visible='true' lat='-34.42141762807' lon='150.49410871716'>
    <tag k='addr:housenumber' v='4' />
    <tag k='addr:street' v='Chalkerville Road' />
  </node>
  <node id='-132347' visible='true' lat='-34.41977333133' lon='150.49685019383'>
    <tag k='addr:housenumber' v='3' />
    <tag k='addr:street' v='Knowle Road' />
  </node>
  <node id='-132349' visible='true' lat='-34.41902283134' lon='150.49765284718'>
    <tag k='addr:housenumber' v='17' />
    <tag k='addr:street' v='Station Road' />
  </node>
  <node id='-132351' visible='true' lat='-34.42461127463' lon='150.49831779194'>
    <tag k='addr:housenumber' v='67' />
    <tag k='addr:street' v='Aylmerton Road' />
  </node>
  <node id='-132353' visible='true' lat='-34.4191267141' lon='150.49899855089'>
    <tag k='addr:housenumber' v='63' />
    <tag k='addr:street' v='Park Avenue' />
  </node>
  <node id='-132355' visible='true' lat='-34.42658939503' lon='150.4984187463'>
    <tag k='addr:housenumber' v='70' />
    <tag k='addr:street' v='Aylmerton Road' />
  </node>
  <node id='-132357' visible='true' lat='-34.41627843242' lon='150.48948848194'>
    <tag k='addr:housenumber' v='5' />
    <tag k='addr:street' v='Franklin Road' />
  </node>
  <node id='-132359' visible='true' lat='-34.4193578401' lon='150.49733859492'>
    <tag k='addr:housenumber' v='2' />
    <tag k='addr:street' v='Knowle Road' />
  </node>
  <node id='-132361' visible='true' lat='-34.41951578822' lon='150.49838230829'>
    <tag k='addr:housenumber' v='68' />
    <tag k='addr:street' v='Park Avenue' />
  </node>
  <node id='-132363' visible='true' lat='-34.42492306466' lon='150.49480206391'>
    <tag k='addr:housenumber' v='35' />
    <tag k='addr:street' v='Aylmerton Road' />
  </node>
  <node id='-132365' visible='true' lat='-34.41930650236' lon='150.49815531232'>
    <tag k='addr:housenumber' v='19' />
    <tag k='addr:street' v='Station Road' />
  </node>
  <node id='-132367' visible='true' lat='-34.42479876581' lon='150.49948869528'>
    <tag k='addr:housenumber' v='81' />
    <tag k='addr:street' v='Aylmerton Road' />
  </node>
  <node id='-132369' visible='true' lat='-34.41785801693' lon='150.49698503434'>
    <tag k='addr:housenumber' v='4' />
    <tag k='addr:street' v='Station Road' />
  </node>
  <node id='-132371' visible='true' lat='-34.4221528863' lon='150.49412257295'>
    <tag k='addr:housenumber' v='2' />
    <tag k='addr:street' v='Chalkerville Road' />
  </node>
  <node id='-132373' visible='true' lat='-34.41932677182' lon='150.49842431177'>
    <tag k='addr:housenumber' v='21' />
    <tag k='addr:street' v='Station Road' />
  </node>
  <node id='-132375' visible='true' lat='-34.41923946912' lon='150.49717525243'>
    <tag k='addr:housenumber' v='4' />
    <tag k='addr:street' v='Knowle Road' />
  </node>
  <node id='-132377' visible='true' lat='-34.41990569835' lon='150.49700802534'>
    <tag k='addr:housenumber' v='1' />
    <tag k='addr:street' v='Knowle Road' />
  </node>
  <node id='-132379' visible='true' lat='-34.41883749289' lon='150.49732602372'>
    <tag k='addr:housenumber' v='13' />
    <tag k='addr:street' v='Station Road' />
  </node>
  <node id='-132381' visible='true' lat='-34.42478754389' lon='150.49388916271'>
    <tag k='addr:housenumber' v='25' />
    <tag k='addr:street' v='Aylmerton Road' />
  </node>
  <node id='-132383' visible='true' lat='-34.41807481183' lon='150.49752445615'>
    <tag k='addr:housenumber' v='10' />
    <tag k='addr:street' v='Station Road' />
  </node>
  <node id='-132385' visible='true' lat='-34.41950607587' lon='150.49788737591'>
    <tag k='addr:housenumber' v='4' />
    <tag k='addr:street' v='Olton Street' />
  </node>
  <node id='-132387' visible='true' lat='-34.41782024051' lon='150.49812586353'>
    <tag k='addr:housenumber' v='80' />
    <tag k='addr:street' v='Park Avenue' />
  </node>
  <node id='-132389' visible='true' lat='-34.4196659446' lon='150.49834359367'>
    <tag k='addr:housenumber' v='66' />
    <tag k='addr:street' v='Park Avenue' />
  </node>
  <node id='-132391' visible='true' lat='-34.41914211209' lon='150.49701615431'>
    <tag k='addr:housenumber' v='6' />
    <tag k='addr:street' v='Knowle Road' />
  </node>
  <node id='-132393' visible='true' lat='-34.41834867361' lon='150.4977760261'>
    <tag k='addr:housenumber' v='14' />
    <tag k='addr:street' v='Station Road' />
  </node>
  <node id='-132395' visible='true' lat='-34.42367373705' lon='150.49413414943'>
    <tag k='addr:housenumber' v='21' />
    <tag k='addr:street' v='Aylmerton Road' />
  </node>
  <node id='-132397' visible='true' lat='-34.42057473935' lon='150.49783838974'>
    <tag k='addr:housenumber' v='52' />
    <tag k='addr:street' v='Park Avenue' />
  </node>
  <node id='-132399' visible='true' lat='-34.41904475136' lon='150.49685706011'>
    <tag k='addr:housenumber' v='8' />
    <tag k='addr:street' v='Knowle Road' />
  </node>
  <node id='-132401' visible='true' lat='-34.41897019326' lon='150.49904416567'>
    <tag k='addr:housenumber' v='65' />
    <tag k='addr:street' v='Park Avenue' />
  </node>
  <node id='-132403' visible='true' lat='-34.42641770239' lon='150.49735433809'>
    <tag k='addr:housenumber' v='68' />
    <tag k='addr:street' v='Aylmerton Road' />
  </node>
  <node id='-132405' visible='true' lat='-34.42030197716' lon='150.49742199624'>
    <tag k='addr:housenumber' v='14' />
    <tag k='addr:street' v='Olton Street' />
  </node>
  <node id='-132407' visible='true' lat='-34.41833427951' lon='150.4983063038'>
    <tag k='addr:housenumber' v='74' />
    <tag k='addr:street' v='Park Avenue' />
  </node>
  <node id='-132409' visible='true' lat='-34.42122327003' lon='150.49095327262'>
    <tag k='addr:housenumber' v='10' />
    <tag k='addr:street' v='Franklin Road' />
  </node>
  <node id='-132411' visible='true' lat='-34.41740285075' lon='150.4883377468'>
    <tag k='addr:housenumber' v='6' />
    <tag k='addr:street' v='Franklin Road' />
  </node>
  <node id='-132413' visible='true' lat='-34.41791819665' lon='150.49717681153'>
    <tag k='addr:housenumber' v='6' />
    <tag k='addr:street' v='Station Road' />
  </node>
  <node id='-132415' visible='true' lat='-34.41865530491' lon='150.49622068361'>
    <tag k='addr:housenumber' v='16' />
    <tag k='addr:street' v='Knowle Road' />
  </node>
  <node id='-132417' visible='true' lat='-34.4182744243' lon='150.49902682319'>
    <tag k='addr:housenumber' v='73' />
    <tag k='addr:street' v='Park Avenue' />
  </node>
  <node id='-132419' visible='true' lat='-34.41795550759' lon='150.49903088313'>
    <tag k='addr:housenumber' v='77' />
    <tag k='addr:street' v='Park Avenue' />
  </node>
  <node id='-132421' visible='true' lat='-34.41936242951' lon='150.49622907322'>
    <tag k='addr:housenumber' v='11' />
    <tag k='addr:street' v='Knowle Road' />
  </node>
  <node id='-132423' visible='true' lat='-34.41979084334' lon='150.49827782921'>
    <tag k='addr:housenumber' v='64' />
    <tag k='addr:street' v='Park Avenue' />
  </node>
  <node id='-132425' visible='true' lat='-34.4179783923' lon='150.49736865456'>
    <tag k='addr:housenumber' v='8' />
    <tag k='addr:street' v='Station Road' />
  </node>
  <node id='-132427' visible='true' lat='-34.41814531511' lon='150.49821110638'>
    <tag k='addr:housenumber' v='76' />
    <tag k='addr:street' v='Park Avenue' />
  </node>
  <node id='-132429' visible='true' lat='-34.41915697869' lon='150.49591851549'>
    <tag k='addr:housenumber' v='15' />
    <tag k='addr:street' v='Knowle Road' />
  </node>
  <node id='-132431' visible='true' lat='-34.41864448194' lon='150.49825916108'>
    <tag k='addr:housenumber' v='20' />
    <tag k='addr:street' v='Station Road' />
  </node>
  <node id='-132433' visible='true' lat='-34.41537590975' lon='150.49119429525'>
    <tag k='addr:housenumber' v='3' />
    <tag k='addr:street' v='Franklin Road' />
  </node>
  <node id='-132435' visible='true' lat='-34.41967060837' lon='150.49669491579'>
    <tag k='addr:housenumber' v='5' />
    <tag k='addr:street' v='Knowle Road' />
  </node>
  <node id='-132437' visible='true' lat='-34.41982086873' lon='150.49769692022'>
    <tag k='addr:housenumber' v='8' />
    <tag k='addr:street' v='Olton Street' />
  </node>
  <node id='-132439' visible='true' lat='-34.41940863252' lon='150.49891979811'>
    <tag k='addr:housenumber' v='61' />
    <tag k='addr:street' v='Park Avenue' />
  </node>
  <node id='-132441' visible='true' lat='-34.41498669948' lon='150.49375449389'>
    <tag k='addr:housenumber' v='1' />
    <tag k='addr:street' v='Franklin Road' />
  </node>
  <node id='-132443' visible='true' lat='-34.41875266932' lon='150.49637977325'>
    <tag k='addr:housenumber' v='14' />
    <tag k='addr:street' v='Knowle Road' />
  </node>
  <node id='-132445' visible='true' lat='-34.41797560992' lon='150.49816636013'>
    <tag k='addr:housenumber' v='78' />
    <tag k='addr:street' v='Park Avenue' />
  </node>
  <node id='-132447' visible='true' lat='-34.4306610036' lon='150.49525304001'>
    <tag k='addr:housenumber' v='60' />
    <tag k='addr:street' v='Aylmerton Road' />
  </node>
  <node id='-132449' visible='true' lat='-34.41586174012' lon='150.49046938739'>
    <tag k='addr:housenumber' v='4' />
    <tag k='addr:street' v='Franklin Road' />
  </node>
  <node id='-132451' visible='true' lat='-34.41991410305' lon='150.4982047088'>
    <tag k='addr:housenumber' v='62' />
    <tag k='addr:street' v='Park Avenue' />
  </node>
  <node id='-132453' visible='true' lat='-34.41892971579' lon='150.49749034159'>
    <tag k='addr:housenumber' v='15' />
    <tag k='addr:street' v='Station Road' />
  </node>
  <node id='-132455' visible='true' lat='-34.41874527161' lon='150.49716170733'>
    <tag k='addr:housenumber' v='11' />
    <tag k='addr:street' v='Station Road' />
  </node>
  <node id='-132457' visible='true' lat='-34.42161226979' lon='150.49103407019'>
    <tag k='addr:housenumber' v='11' />
    <tag k='addr:street' v='Franklin Road' />
  </node>
  <node id='-132459' visible='true' lat='-34.41811129925' lon='150.49902890167'>
    <tag k='addr:housenumber' v='75' />
    <tag k='addr:street' v='Park Avenue' />
  </node>
  <node id='-132461' visible='true' lat='-34.42095690135' lon='150.49735330558'>
    <tag k='addr:housenumber' v='50-54' />
    <tag k='addr:street' v='Park Avenue' />
  </node>
  <node id='-132463' visible='true' lat='-34.41922262286' lon='150.49799400882'>
    <tag k='addr:housenumber' v='2' />
    <tag k='addr:street' v='Olton Street' />
  </node>
  <node id='-132465' visible='true' lat='-34.41843754931' lon='150.49902473427'>
    <tag k='addr:housenumber' v='71' />
    <tag k='addr:street' v='Park Avenue' />
  </node>
  <node id='-132467' visible='true' lat='-34.41966553893' lon='150.49778892264'>
    <tag k='addr:housenumber' v='6' />
    <tag k='addr:street' v='Olton Street' />
  </node>
  <node id='-132469' visible='true' lat='-34.41946515462' lon='150.49638435606'>
    <tag k='addr:housenumber' v='9' />
    <tag k='addr:street' v='Knowle Road' />
  </node>
  <node id='-132471' visible='true' lat='-34.41516952225' lon='150.49222923354'>
    <tag k='addr:housenumber' v='2' />
    <tag k='addr:street' v='Franklin Road' />
  </node>
  <node id='-132473' visible='true' lat='-34.42437660697' lon='150.49282407032'>
    <tag k='addr:housenumber' v='15' />
    <tag k='addr:street' v='Aylmerton Road' />
  </node>
  <node id='-132475' visible='true' lat='-34.41850990987' lon='150.4980087126'>
    <tag k='addr:housenumber' v='16-18' />
    <tag k='addr:street' v='Station Road' />
  </node>
  <node id='-132477' visible='true' lat='-34.41943098106' lon='150.50649744436'>
    <tag k='addr:housenumber' v='91' />
    <tag k='addr:street' v='Aylmerton Road' />
  </node>
  <node id='-132479' visible='true' lat='-34.42424687515' lon='150.49542604774'>
    <tag k='addr:housenumber' v='4' />
    <tag k='addr:street' v='Park Avenue' />
  </node>
  <node id='-132481' visible='true' lat='-34.41860733695' lon='150.49691595397'>
    <tag k='addr:housenumber' v='7-9' />
    <tag k='addr:street' v='Station Road' />
  </node>
  <node id='-132483' visible='true' lat='-34.41889913759' lon='150.49661911623'>
    <tag k='addr:housenumber' v='10-12' />
    <tag k='addr:street' v='Knowle Road' />
  </node>
  <node id='-132485' visible='true' lat='-34.41842289313' lon='150.49658734563'>
    <tag k='addr:housenumber' v='3-5' />
    <tag k='addr:street' v='Station Road' />
  </node>
  <node id='-132487' visible='true' lat='-34.4206137026' lon='150.49546058011'>
    <tag k='addr:housenumber' v='16' />
    <tag k='addr:street' v='Olton Street' />
  </node>
  <node id='-132489' visible='true' lat='-34.42016541036' lon='150.48964188795'>
    <tag k='addr:housenumber' v='9' />
    <tag k='addr:street' v='Franklin Road' />
  </node>
  <node id='-132493' visible='true' lat='-34.4232936528' lon='150.4924931286'>
    <tag k='addr:housenumber' v='11' />
    <tag k='addr:street' v='Aylmerton Road' />
  </node>
  <node id='-132495' visible='true' lat='-34.41860066517' lon='150.4990226658'>
    <tag k='addr:housenumber' v='69' />
    <tag k='addr:street' v='Park Avenue' />
  </node>
  <node id='-132497' visible='true' lat='-34.4187637656' lon='150.49902058183'>
    <tag k='addr:housenumber' v='67' />
    <tag k='addr:street' v='Park Avenue' />
  </node>
  <node id='-132499' visible='true' lat='-34.42013156917' lon='150.49751288427'>
    <tag k='addr:housenumber' v='12' />
    <tag k='addr:street' v='Olton Street' />
  </node>
  <node id='-132501' visible='true' lat='-34.41997621823' lon='150.49760491794'>
    <tag k='addr:housenumber' v='10' />
    <tag k='addr:street' v='Olton Street' />
  </node>
  <node id='-132503' visible='true' lat='-34.4204071741' lon='150.49791213986'>
    <tag k='addr:housenumber' v='54' />
    <tag k='addr:street' v='Park Avenue' />
  </node>
  <node id='-132505' visible='true' lat='-34.42009899266' lon='150.49809500615'>
    <tag k='addr:housenumber' v='58' />
    <tag k='addr:street' v='Park Avenue' />
  </node>
  <node id='-132507' visible='true' lat='-34.42028389925' lon='150.49798529162'>
    <tag k='addr:housenumber' v='56' />
    <tag k='addr:street' v='Park Avenue' />
  </node>
  <node id='-132509' visible='true' lat='-34.41833942885' lon='150.49622997386'>
    <tag k='addr:housenumber' v='1' />
    <tag k='addr:street' v='Station Road' />
  </node>
</osm>
