<?xml version='1.0' encoding='UTF-8'?>
<osm version='0.6' generator='JOSM'>
  <node id='-109365' visible='true' lat='-33.83411055398' lon='151.01668839731'>
    <tag k='addr:housenumber' v='18' />
    <tag k='addr:street' v='George Street' />
  </node>
  <node id='-109367' visible='true' lat='-33.83338830371' lon='151.01724488004'>
    <tag k='addr:housenumber' v='36' />
    <tag k='addr:street' v='George Street' />
  </node>
  <node id='-109369' visible='true' lat='-33.83322418274' lon='151.01738061775'>
    <tag k='addr:housenumber' v='58' />
    <tag k='addr:street' v='Parramatta Road' />
  </node>
  <node id='-109371' visible='true' lat='-33.83339425721' lon='151.01775975348'>
    <tag k='addr:housenumber' v='54' />
    <tag k='addr:street' v='Parramatta Road' />
  </node>
  <node id='-109373' visible='true' lat='-33.83430871692' lon='151.0176576815'>
    <tag k='addr:housenumber' v='28' />
    <tag k='addr:street' v='Berry Street' />
  </node>
  <node id='-109375' visible='true' lat='-33.83401228097' lon='151.01674987146'>
    <tag k='addr:housenumber' v='20' />
    <tag k='addr:street' v='George Street' />
  </node>
  <node id='-109377' visible='true' lat='-33.83400147007' lon='151.01630005375'>
    <tag k='addr:housenumber' v='13' />
    <tag k='addr:street' v='Marsh Street' />
  </node>
  <node id='-109379' action='modify' visible='true' lat='-33.83412006176' lon='151.02445764142'>
    <tag k='addr:housenumber' v='2-8' />
    <tag k='addr:street' v='Martha Street' />
  </node>
  <node id='-109381' action='modify' visible='true' lat='-33.83410450249' lon='151.02442519772'>
    <tag k='addr:housenumber' v='2' />
    <tag k='addr:street' v='Martha Street' />
  </node>
  <node id='-109383' action='modify' visible='true' lat='-33.83413562104' lon='151.02442519772'>
    <tag k='addr:housenumber' v='8' />
    <tag k='addr:street' v='Martha Street' />
  </node>
  <node id='-109385' visible='true' lat='-33.83211608851' lon='151.01879899229'>
    <tag k='addr:housenumber' v='53' />
    <tag k='addr:street' v='George Street' />
  </node>
  <node id='-109387' visible='true' lat='-33.83017044261' lon='151.02093257229'>
    <tag k='addr:housenumber' v='1' />
    <tag k='addr:street' v='Unwin Street' />
  </node>
  <node id='-109389' visible='true' lat='-33.83154666106' lon='151.01939330405'>
    <tag k='addr:housenumber' v='56-64' />
    <tag k='addr:street' v='George Street' />
  </node>
  <node id='-109391' visible='true' lat='-33.83322920753' lon='151.0206155106'>
    <tag k='addr:housenumber' v='9' />
    <tag k='addr:street' v='Kendall Street' />
  </node>
  <node id='-109393' visible='true' lat='-33.83373515437' lon='151.01696535786'>
    <tag k='addr:housenumber' v='26' />
    <tag k='addr:street' v='George Street' />
  </node>
  <node id='-109395' visible='true' lat='-33.83449455465' lon='151.01751167893'>
    <tag k='addr:housenumber' v='24' />
    <tag k='addr:street' v='Berry Street' />
  </node>
  <node id='-109397' visible='true' lat='-33.8342856012' lon='151.01609929426'>
    <tag k='addr:housenumber' v='19' />
    <tag k='addr:street' v='Marsh Street' />
  </node>
  <node id='-109399' visible='true' lat='-33.8321179336' lon='151.0198583523'>
    <tag k='addr:housenumber' v='17' />
    <tag k='addr:street' v='James Ruse Drive' />
  </node>
  <node id='-109401' visible='true' lat='-33.82989426345' lon='151.02323536623'>
    <tag k='addr:housenumber' v='60' />
    <tag k='addr:street' v='Wentworth Street' />
  </node>
  <node id='-109403' visible='true' lat='-33.8335471833' lon='151.01666947148'>
    <tag k='addr:housenumber' v='5' />
    <tag k='addr:street' v='Marsh Street' />
  </node>
  <node id='-109405' visible='true' lat='-33.83336291008' lon='151.02615234172'>
    <tag k='addr:housenumber' v='1' />
    <tag k='addr:street' v='Deniehy Street' />
  </node>
  <node id='-109407' visible='true' lat='-33.83458768763' lon='151.01700176754'>
    <tag k='addr:housenumber' v='13' />
    <tag k='addr:street' v='George Street' />
  </node>
  <node id='-109409' visible='true' lat='-33.83249993472' lon='151.02107650207'>
    <tag k='addr:housenumber' v='23' />
    <tag k='addr:street' v='Kendall Street' />
  </node>
  <node id='-109411' visible='true' lat='-33.83453402063' lon='151.01817621703'>
    <tag k='addr:housenumber' v='29' />
    <tag k='addr:street' v='Berry Street' />
  </node>
  <node id='-109413' visible='true' lat='-33.83421381004' lon='151.01729270646'>
    <tag k='addr:housenumber' v='21' />
    <tag k='addr:street' v='George Street' />
  </node>
  <node id='-109415' visible='true' lat='-33.83239378372' lon='151.01977933709'>
    <tag k='addr:housenumber' v='13' />
    <tag k='addr:street' v='James Ruse Drive' />
  </node>
  <node id='-109417' visible='true' lat='-33.8322715619' lon='151.0198554294'>
    <tag k='addr:housenumber' v='15' />
    <tag k='addr:street' v='James Ruse Drive' />
  </node>
  <node id='-109419' visible='true' lat='-33.83412465422' lon='151.01780148436'>
    <tag k='addr:housenumber' v='32' />
    <tag k='addr:street' v='Berry Street' />
  </node>
  <node id='-109421' visible='true' lat='-33.83079738166' lon='151.02099474756'>
    <tag k='addr:housenumber' v='9' />
    <tag k='addr:street' v='Kay Street' />
  </node>
  <node id='-109423' visible='true' lat='-33.83386984753' lon='151.01641935339'>
    <tag k='addr:housenumber' v='11' />
    <tag k='addr:street' v='Marsh Street' />
  </node>
  <node id='-109425' visible='true' lat='-33.83331655045' lon='151.01923133004'>
    <tag k='addr:housenumber' v='45' />
    <tag k='addr:street' v='Parramatta Road' />
  </node>
  <node id='-109427' action='modify' visible='true' lat='-33.83219416328' lon='151.0203348999'>
    <tag k='addr:housenumber' v='22' />
    <tag k='addr:street' v='Kendall Street' />
  </node>
  <node id='-109429' action='modify' visible='true' lat='-33.83217860401' lon='151.02030245693'>
    <tag k='addr:housenumber' v='20' />
    <tag k='addr:street' v='Kendall Street' />
  </node>
  <node id='-109431' action='modify' visible='true' lat='-33.83220972256' lon='151.02030245693'>
    <tag k='addr:housenumber' v='1/20' />
    <tag k='addr:street' v='Kendall Street' />
  </node>
  <node id='-109433' visible='true' lat='-33.8352665116' lon='151.02154771387'>
    <tag k='addr:housenumber' v='4' />
    <tag k='addr:street' v='Parramatta Road' />
  </node>
  <node id='-109435' visible='true' lat='-33.83112816624' lon='151.02249652092'>
    <tag k='addr:housenumber' v='46' />
    <tag k='addr:street' v='Wentworth Street' />
  </node>
  <node id='-109437' visible='true' lat='-33.83300258879' lon='151.01939381425'>
    <tag k='addr:housenumber' v='3' />
    <tag k='addr:street' v='James Ruse Drive' />
  </node>
  <node id='-109439' visible='true' lat='-33.8334771023' lon='151.01719157324'>
    <tag k='addr:housenumber' v='32' />
    <tag k='addr:street' v='George Street' />
  </node>
  <node id='-109441' visible='true' lat='-33.83292494306' lon='151.01848753474'>
    <tag k='addr:housenumber' v='2' />
    <tag k='addr:street' v='James Ruse Drive' />
  </node>
  <node id='-109443' visible='true' lat='-33.83263751448' lon='151.01962428054'>
    <tag k='addr:housenumber' v='9' />
    <tag k='addr:street' v='James Ruse Drive' />
  </node>
  <node id='-109445' visible='true' lat='-33.83391885664' lon='151.02290580146'>
    <tag k='addr:housenumber' v='11' />
    <tag k='addr:street' v='Harbord Street' />
  </node>
  <node id='-109447' visible='true' lat='-33.8322567559' lon='151.01805335111'>
    <tag k='addr:housenumber' v='42' />
    <tag k='addr:street' v='George Street' />
  </node>
  <node id='-109449' visible='true' lat='-33.83364228513' lon='151.01703681803'>
    <tag k='addr:housenumber' v='28' />
    <tag k='addr:street' v='George Street' />
  </node>
  <node id='-109451' visible='true' lat='-33.83355091643' lon='151.01810595352'>
    <tag k='addr:housenumber' v='48' />
    <tag k='addr:street' v='Parramatta Road' />
  </node>
  <node id='-109453' visible='true' lat='-33.83306569136' lon='151.01702660592'>
    <tag k='addr:housenumber' v='66' />
    <tag k='addr:street' v='Parramatta Road' />
  </node>
  <node id='-109455' visible='true' lat='-33.83305104533' lon='151.0274670497'>
    <tag k='addr:housenumber' v='7' />
    <tag k='addr:street' v='Tennyson Street' />
  </node>
  <node id='-109457' visible='true' lat='-33.83468061938' lon='151.01736807909'>
    <tag k='addr:housenumber' v='18' />
    <tag k='addr:street' v='Berry Street' />
  </node>
  <node id='-109459' visible='true' lat='-33.83447098045' lon='151.01638969235'>
    <tag k='addr:housenumber' v='8' />
    <tag k='addr:street' v='George Street' />
  </node>
  <node id='-109461' visible='true' lat='-33.83213343051' lon='151.01813096725'>
    <tag k='addr:housenumber' v='46' />
    <tag k='addr:street' v='George Street' />
  </node>
  <node id='-109463' visible='true' lat='-33.83336945522' lon='151.01612513056'>
    <tag k='addr:housenumber' v='10' />
    <tag k='addr:street' v='Marsh Street' />
  </node>
  <node id='-109465' visible='true' lat='-33.83577061426' lon='151.01889122329'>
    <tag k='addr:housenumber' v='15' />
    <tag k='addr:street' v='Berry Street' />
  </node>
  <node id='-109467' visible='true' lat='-33.83339671626' lon='151.02199422224'>
    <tag k='addr:housenumber' v='8' />
    <tag k='addr:street' v='Harbord Street' />
  </node>
  <node id='-109469' visible='true' lat='-33.83193378365' lon='151.01891341895'>
    <tag k='addr:housenumber' v='55-57' />
    <tag k='addr:street' v='George Street' />
  </node>
  <node id='-109471' action='modify' visible='true' lat='-33.8337934644' lon='151.02019750724'>
    <tag k='addr:housenumber' v='37' />
    <tag k='addr:street' v='Parramatta Road' />
  </node>
  <node id='-109473' action='modify' visible='true' lat='-33.8337934644' lon='151.02015424914'>
    <tag k='addr:housenumber' v='35' />
    <tag k='addr:street' v='Parramatta Road' />
  </node>
  <node id='-109475' visible='true' lat='-33.83410207815' lon='151.01623882305'>
    <tag k='addr:housenumber' v='15' />
    <tag k='addr:street' v='Marsh Street' />
  </node>
  <node id='-109477' visible='true' lat='-33.8328344454' lon='151.01830904785'>
    <tag k='addr:housenumber' v='39A' />
    <tag k='addr:street' v='George Street' />
  </node>
  <node id='-109479' visible='true' lat='-33.83417525625' lon='151.02302374173'>
    <tag k='addr:housenumber' v='9' />
    <tag k='addr:street' v='Harbord Street' />
  </node>
  <node id='-109481' visible='true' lat='-33.83384752706' lon='151.01757781302'>
    <tag k='addr:housenumber' v='29' />
    <tag k='addr:street' v='George Street' />
  </node>
  <node id='-109483' visible='true' lat='-33.83345453476' lon='151.01674130193'>
    <tag k='addr:housenumber' v='3' />
    <tag k='addr:street' v='Marsh Street' />
  </node>
  <node id='-109485' visible='true' lat='-33.83467862646' lon='151.01693121578'>
    <tag k='addr:housenumber' v='11' />
    <tag k='addr:street' v='George Street' />
  </node>
  <node id='-109487' visible='true' lat='-33.83288081927' lon='151.01947047206'>
    <tag k='addr:housenumber' v='5' />
    <tag k='addr:street' v='James Ruse Drive' />
  </node>
  <node id='-109489' visible='true' lat='-33.8319493663' lon='151.01768172427'>
    <tag k='addr:housenumber' v='52-54' />
    <tag k='addr:street' v='George Street' />
  </node>
  <node id='-109491' visible='true' lat='-33.83428976042' lon='151.01653416284'>
    <tag k='addr:housenumber' v='14' />
    <tag k='addr:street' v='George Street' />
  </node>
  <node id='-109493' action='modify' visible='true' lat='-33.83403382471' lon='151.01789397887'>
    <tag k='addr:housenumber' v='36' />
    <tag k='addr:street' v='Berry Street' />
  </node>
  <node id='-109495' action='modify' visible='true' lat='-33.83403382471' lon='151.01785072064'>
    <tag k='addr:housenumber' v='34' />
    <tag k='addr:street' v='Berry Street' />
  </node>
  <node id='-109497' visible='true' lat='-33.83458834017' lon='151.01744008207'>
    <tag k='addr:housenumber' v='22' />
    <tag k='addr:street' v='Berry Street' />
  </node>
  <node id='-109499' visible='true' lat='-33.8343070859' lon='151.01722057527'>
    <tag k='addr:housenumber' v='19' />
    <tag k='addr:street' v='George Street' />
  </node>
  <node id='-109501' visible='true' lat='-33.83522048569' lon='151.02292879313'>
    <tag k='addr:housenumber' v='1A' />
    <tag k='addr:street' v='Parramatta Road' />
  </node>
  <node id='-109503' visible='true' lat='-33.83327543046' lon='151.01749705884'>
    <tag k='addr:housenumber' v='56' />
    <tag k='addr:street' v='Parramatta Road' />
  </node>
  <node id='-109505' visible='true' lat='-33.83342202927' lon='151.02105473127'>
    <tag k='addr:housenumber' v='10' />
    <tag k='addr:street' v='Wentworth Street' />
  </node>
  <node id='-109507' visible='true' lat='-33.83632935942' lon='151.02137415374'>
    <tag k='addr:housenumber' v='13A' />
    <tag k='addr:street' v='Berry Street' />
  </node>
  <node id='-109509' visible='true' lat='-33.8302325166' lon='151.02110110404'>
    <tag k='addr:housenumber' v='4' />
    <tag k='addr:street' v='Kay Street' />
  </node>
  <node id='-109511' visible='true' lat='-33.83348887142' lon='151.02058911405'>
    <tag k='addr:housenumber' v='3-7' />
    <tag k='addr:street' v='Kendall Street' />
  </node>
  <node id='-109513' visible='true' lat='-33.83600072911' lon='151.02119882507'>
    <tag k='addr:housenumber' v='17' />
    <tag k='addr:street' v='Berry Street' />
  </node>
  <node id='-109515' visible='true' lat='-33.83444635502' lon='151.01825759308'>
    <tag k='addr:housenumber' v='31' />
    <tag k='addr:street' v='Berry Street' />
  </node>
  <node id='-109517' visible='true' lat='-33.83486282146' lon='151.01700441923'>
    <tag k='addr:housenumber' v='9' />
    <tag k='addr:street' v='George Street' />
  </node>
  <node id='-109519' visible='true' lat='-33.83477323877' lon='151.01729623615'>
    <tag k='addr:housenumber' v='16' />
    <tag k='addr:street' v='Berry Street' />
  </node>
  <node id='-109521' visible='true' lat='-33.83419673426' lon='151.01660663584'>
    <tag k='addr:housenumber' v='16' />
    <tag k='addr:street' v='George Street' />
  </node>
  <node id='-109523' visible='true' lat='-33.83405269738' lon='151.02399314956'>
    <tag k='addr:housenumber' v='14' />
    <tag k='addr:street' v='Martha Street' />
  </node>
  <node id='-109525' visible='true' lat='-33.83317095921' lon='151.01726252314'>
    <tag k='addr:housenumber' v='60' />
    <tag k='addr:street' v='Parramatta Road' />
  </node>
  <node id='-109527' visible='true' lat='-33.8339384168' lon='151.0175078434'>
    <tag k='addr:housenumber' v='27' />
    <tag k='addr:street' v='George Street' />
  </node>
  <node id='-109529' visible='true' lat='-33.83449422015' lon='151.01707355993'>
    <tag k='addr:housenumber' v='15' />
    <tag k='addr:street' v='George Street' />
  </node>
  <node id='-109531' visible='true' lat='-33.83426123141' lon='151.0184033534'>
    <tag k='addr:housenumber' v='35' />
    <tag k='addr:street' v='Berry Street' />
  </node>
  <node id='-109533' visible='true' lat='-33.83434504251' lon='151.02286113969'>
    <tag k='addr:housenumber' v='7' />
    <tag k='addr:street' v='Harbord Street' />
  </node>
  <node id='-109535' visible='true' lat='-33.83088876629' lon='151.02121143861'>
    <tag k='addr:housenumber' v='7' />
    <tag k='addr:street' v='Kay Street' />
  </node>
  <node id='-109537' visible='true' lat='-33.83367253612' lon='151.0182092473'>
    <tag k='addr:housenumber' v='44' />
    <tag k='addr:street' v='Parramatta Road' />
  </node>
  <node id='-109539' visible='true' lat='-33.83268843206' lon='151.0267360621'>
    <tag k='addr:housenumber' v='4' />
    <tag k='addr:street' v='Tennyson Street' />
  </node>
  <node id='-109541' visible='true' lat='-33.83260425335' lon='151.01849186449'>
    <tag k='addr:housenumber' v='41' />
    <tag k='addr:street' v='George Street' />
  </node>
  <node id='-109543' visible='true' lat='-33.83274311655' lon='151.02092316392'>
    <tag k='addr:housenumber' v='19' />
    <tag k='addr:street' v='Kendall Street' />
  </node>
  <node id='-109545' action='modify' visible='true' lat='-33.83490916506' lon='151.01792246918'>
    <tag k='addr:housenumber' v='21' />
    <tag k='addr:street' v='Berry Street' />
  </node>
  <node id='-109547' action='modify' visible='true' lat='-33.83490916506' lon='151.01787921051'>
    <tag k='addr:housenumber' v='21A' />
    <tag k='addr:street' v='Berry Street' />
  </node>
  <node id='-109549' visible='true' lat='-33.83229821214' lon='151.01900328977'>
    <tag k='addr:housenumber' v='10' />
    <tag k='addr:street' v='James Ruse Drive' />
  </node>
  <node id='-109551' visible='true' lat='-33.83275929483' lon='151.01954759361'>
    <tag k='addr:housenumber' v='7' />
    <tag k='addr:street' v='James Ruse Drive' />
  </node>
  <node id='-109553' visible='true' lat='-33.83303765633' lon='151.02618524389'>
    <tag k='addr:housenumber' v='3' />
    <tag k='addr:street' v='Deniehy Street' />
  </node>
  <node id='-109555' visible='true' lat='-33.83412143556' lon='151.01736539744'>
    <tag k='addr:housenumber' v='23' />
    <tag k='addr:street' v='George Street' />
  </node>
  <node id='-109557' visible='true' lat='-33.83494432626' lon='151.02226282208'>
    <tag k='addr:housenumber' v='13' />
    <tag k='addr:street' v='Parramatta Road' />
  </node>
  <node id='-109559' action='modify' visible='true' lat='-33.83470271519' lon='151.02244150734'>
    <tag k='addr:housenumber' v='1' />
    <tag k='addr:street' v='Harbord Street' />
  </node>
  <node id='-109561' action='modify' visible='true' lat='-33.83470271519' lon='151.02239824878'>
    <tag k='addr:housenumber' v='2/1' />
    <tag k='addr:street' v='Harbord Street' />
  </node>
  <node id='-109565' visible='true' lat='-33.8332594013' lon='151.01690474001'>
    <tag k='addr:housenumber' v='1' />
    <tag k='addr:street' v='Marsh Street' />
  </node>
  <node id='-109567' visible='true' lat='-33.83296477904' lon='151.02214569157'>
    <tag k='addr:housenumber' v='19' />
    <tag k='addr:street' v='Wentworth Street' />
  </node>
  <node id='-109569' visible='true' lat='-33.83269133634' lon='151.02150872858'>
    <tag k='addr:housenumber' v='20' />
    <tag k='addr:street' v='Wentworth Street' />
  </node>
  <node id='-109571' visible='true' lat='-33.83435400979' lon='151.01833104199'>
    <tag k='addr:housenumber' v='33' />
    <tag k='addr:street' v='Berry Street' />
  </node>
  <node id='-109573' visible='true' lat='-33.8347962583' lon='151.01627982435'>
    <tag k='addr:housenumber' v='1' />
    <tag k='addr:street' v='Sutherland Street' />
  </node>
  <node id='-109575' visible='true' lat='-33.83094019219' lon='151.02258837996'>
    <tag k='addr:housenumber' v='48' />
    <tag k='addr:street' v='Wentworth Street' />
  </node>
  <node id='-109577' visible='true' lat='-33.83486596899' lon='151.01722426444'>
    <tag k='addr:housenumber' v='14' />
    <tag k='addr:street' v='Berry Street' />
  </node>
  <node id='-109579' visible='true' lat='-33.83272635161' lon='151.01841506017'>
    <tag k='addr:housenumber' v='39' />
    <tag k='addr:street' v='George Street' />
  </node>
  <node id='-109581' visible='true' lat='-33.83363354952' lon='151.01659691556'>
    <tag k='addr:housenumber' v='7' />
    <tag k='addr:street' v='Marsh Street' />
  </node>
  <node id='-109583' visible='true' lat='-33.83358537362' lon='151.02698731296'>
    <tag k='addr:housenumber' v='8' />
    <tag k='addr:street' v='Tennyson Street' />
  </node>
  <node id='-109585' visible='true' lat='-33.83152095201' lon='151.02182019377'>
    <tag k='addr:housenumber' v='32' />
    <tag k='addr:street' v='Wentworth Street' />
  </node>
  <node id='-109587' action='modify' visible='true' lat='-33.83476978589' lon='151.01802918292'>
    <tag k='addr:housenumber' v='25' />
    <tag k='addr:street' v='Berry Street' />
  </node>
  <node id='-109589' action='modify' visible='true' lat='-33.83475422661' lon='151.01799673898'>
    <tag k='addr:housenumber' v='23-25' />
    <tag k='addr:street' v='Berry Street' />
  </node>
  <node id='-109591' action='modify' visible='true' lat='-33.83478534517' lon='151.01799673898'>
    <tag k='addr:housenumber' v='23' />
    <tag k='addr:street' v='Berry Street' />
  </node>
  <node id='-109593' visible='true' lat='-33.83384892976' lon='151.01801631983'>
    <tag k='addr:housenumber' v='40' />
    <tag k='addr:street' v='Berry Street' />
  </node>
  <node id='-109595' visible='true' lat='-33.83199580155' lon='151.01993576517'>
    <tag k='addr:housenumber' v='19' />
    <tag k='addr:street' v='James Ruse Drive' />
  </node>
  <node id='-109597' visible='true' lat='-33.8328130258' lon='151.02143884994'>
    <tag k='addr:housenumber' v='18' />
    <tag k='addr:street' v='Wentworth Street' />
  </node>
  <node id='-109599' action='modify' visible='true' lat='-33.8338739175' lon='151.01687895897'>
    <tag k='addr:housenumber' v='24' />
    <tag k='addr:street' v='George Street' />
  </node>
  <node id='-109601' action='modify' visible='true' lat='-33.8338739175' lon='151.01683570083'>
    <tag k='addr:housenumber' v='22' />
    <tag k='addr:street' v='George Street' />
  </node>
  <node id='-109603' visible='true' lat='-33.83319453573' lon='151.01983188536'>
    <tag k='addr:housenumber' v='6' />
    <tag k='addr:street' v='Kendall Street' />
  </node>
  <node id='-109605' visible='true' lat='-33.83317072843' lon='151.01625354806'>
    <tag k='addr:housenumber' v='6' />
    <tag k='addr:street' v='Marsh Street' />
  </node>
  <node id='-109607' visible='true' lat='-33.83463369814' lon='151.01811708102'>
    <tag k='addr:housenumber' v='27' />
    <tag k='addr:street' v='Berry Street' />
  </node>
  <node id='-109609' visible='true' lat='-33.83440003954' lon='151.01714760456'>
    <tag k='addr:housenumber' v='17' />
    <tag k='addr:street' v='George Street' />
  </node>
  <node id='-109611' visible='true' lat='-33.83251573372' lon='151.01970037092'>
    <tag k='addr:housenumber' v='11' />
    <tag k='addr:street' v='James Ruse Drive' />
  </node>
  <node id='-109613' visible='true' lat='-33.83248277009' lon='151.01856852662'>
    <tag k='addr:housenumber' v='45' />
    <tag k='addr:street' v='George Street' />
  </node>
  <node id='-109615' visible='true' lat='-33.83262128343' lon='151.02099990042'>
    <tag k='addr:housenumber' v='21' />
    <tag k='addr:street' v='Kendall Street' />
  </node>
  <node id='-109617' visible='true' lat='-33.8332998394' lon='151.02113127354'>
    <tag k='addr:housenumber' v='12' />
    <tag k='addr:street' v='Wentworth Street' />
  </node>
  <node id='-109619' action='modify' visible='true' lat='-33.83295157981' lon='151.02000693756'>
    <tag k='addr:housenumber' v='8' />
    <tag k='addr:street' v='Kendall Street' />
  </node>
  <node id='-109621' action='modify' visible='true' lat='-33.83295157981' lon='151.01996367988'>
    <tag k='addr:housenumber' v='10' />
    <tag k='addr:street' v='Kendall Street' />
  </node>
  <node id='-109623' visible='true' lat='-33.83373006715' lon='151.01653263741'>
    <tag k='addr:housenumber' v='9' />
    <tag k='addr:street' v='Marsh Street' />
  </node>
  <node id='-109625' action='modify' visible='true' lat='-33.83345943212' lon='151.02241277639'>
    <tag k='addr:housenumber' v='6' />
    <tag k='addr:street' v='Harbord Street' />
  </node>
  <node id='-109627' action='modify' visible='true' lat='-33.83345943212' lon='151.02236951845'>
    <tag k='addr:housenumber' v='12' />
    <tag k='addr:street' v='Harbord Street' />
  </node>
  <node id='-109629' visible='true' lat='-33.83398666644' lon='151.02342072471'>
    <tag k='addr:housenumber' v='2' />
    <tag k='addr:street' v='Darcy Street' />
  </node>
  <node id='-109631' visible='true' lat='-33.83161121001' lon='151.01956994667'>
    <tag k='addr:housenumber' v='28' />
    <tag k='addr:street' v='James Ruse Drive' />
  </node>
  <node id='-109633' visible='true' lat='-33.83345651509' lon='151.01696078899'>
    <tag k='addr:housenumber' v='30' />
    <tag k='addr:street' v='George Street' />
  </node>
  <node id='-109635' visible='true' lat='-33.83379271717' lon='151.02787973864'>
    <tag k='addr:housenumber' v='11-13' />
    <tag k='addr:street' v='Tennyson Street' />
  </node>
  <node id='-109637' visible='true' lat='-33.83321964911' lon='151.01953756993'>
    <tag k='addr:housenumber' v='1' />
    <tag k='addr:street' v='James Ruse Drive' />
  </node>
  <node id='-109639' visible='true' lat='-33.83252401383' lon='151.0264800052'>
    <tag k='addr:housenumber' v='2' />
    <tag k='addr:street' v='Tennyson Street' />
  </node>
  <node id='-109641' visible='true' lat='-33.83054222597' lon='151.02692372798'>
    <tag k='addr:housenumber' v='2' />
    <tag k='addr:street' v='Deniehy Street' />
  </node>
  <node id='-109643' visible='true' lat='-33.83285313427' lon='151.01656393002'>
    <tag k='addr:housenumber' v='70' />
    <tag k='addr:street' v='Parramatta Road' />
  </node>
  <node id='-109645' visible='true' lat='-33.83419374764' lon='151.01616687489'>
    <tag k='addr:housenumber' v='17' />
    <tag k='addr:street' v='Marsh Street' />
  </node>
  <node id='-109647' visible='true' lat='-33.83020125519' lon='151.02179247218'>
    <tag k='addr:housenumber' v='2' />
    <tag k='addr:street' v='Kay Street' />
  </node>
  <node id='-109649' visible='true' lat='-33.83412046351' lon='151.02136994544'>
    <tag k='addr:housenumber' v='25' />
    <tag k='addr:street' v='Parramatta Road' />
  </node>
  <node id='-109651' visible='true' lat='-33.83252597496' lon='151.02025448976'>
    <tag k='addr:housenumber' v='14' />
    <tag k='addr:street' v='Kendall Street' />
  </node>
  <node id='-109653' visible='true' lat='-33.83443375879' lon='151.02171289946'>
    <tag k='addr:housenumber' v='15' />
    <tag k='addr:street' v='Parramatta Road' />
  </node>
  <node id='-109655' visible='true' lat='-33.83279647701' lon='151.02734922135'>
    <tag k='addr:housenumber' v='5' />
    <tag k='addr:street' v='Tennyson Street' />
  </node>
  <node id='-109661' visible='true' lat='-33.83178402446' lon='151.0269460382'>
    <tag k='addr:housenumber' v='1' />
    <tag k='addr:street' v='Tennyson Street' />
  </node>
  <node id='-109663' visible='true' lat='-33.83161861917' lon='151.02219102529'>
    <tag k='addr:housenumber' v='34-36' />
    <tag k='addr:street' v='Wentworth Street' />
  </node>
  <node id='-109665' visible='true' lat='-33.83285496487' lon='151.02630050196'>
    <tag k='addr:housenumber' v='4' />
    <tag k='addr:street' v='Deniehy Street' />
  </node>
  <node id='-109667' action='modify' visible='true' lat='-33.83238514909' lon='151.02716330326'>
    <tag k='addr:housenumber' v='3' />
    <tag k='addr:street' v='Tennyson Street' />
  </node>
  <node id='-109669' action='modify' visible='true' lat='-33.83238514909' lon='151.02712004587'>
    <tag k='addr:housenumber' v='3A' />
    <tag k='addr:street' v='Tennyson Street' />
  </node>
  <node id='-109671' visible='true' lat='-33.830820209' lon='151.02154882219'>
    <tag k='addr:housenumber' v='5' />
    <tag k='addr:street' v='Kay Street' />
  </node>
  <node id='-109673' visible='true' lat='-33.83137573068' lon='151.0223429292'>
    <tag k='addr:housenumber' v='38-40' />
    <tag k='addr:street' v='Wentworth Street' />
  </node>
  <node id='-109675' visible='true' lat='-33.83331256291' lon='151.02757370099'>
    <tag k='addr:housenumber' v='9' />
    <tag k='addr:street' v='Tennyson Street' />
  </node>
  <node id='-109677' visible='true' lat='-33.83299528822' lon='151.02132365873'>
    <tag k='addr:housenumber' v='16' />
    <tag k='addr:street' v='Wentworth Street' />
  </node>
  <node id='-109679' visible='true' lat='-33.83307402688' lon='151.01632794371'>
    <tag k='addr:housenumber' v='4' />
    <tag k='addr:street' v='Marsh Street' />
  </node>
  <node id='-109681' visible='true' lat='-33.83114918279' lon='151.02123998302'>
    <tag k='addr:housenumber' v='7B' />
    <tag k='addr:street' v='Kay Street' />
  </node>
  <node id='-109683' visible='true' lat='-33.83112560067' lon='151.02129281933'>
    <tag k='addr:housenumber' v='5B' />
    <tag k='addr:street' v='Kay Street' />
  </node>
  <node id='-109685' visible='true' lat='-33.83300142607' lon='151.01642279816'>
    <tag k='addr:housenumber' v='2' />
    <tag k='addr:street' v='Marsh Street' />
  </node>
  <node id='-109687' visible='true' lat='-33.83398349111' lon='151.02060802599'>
    <tag k='addr:housenumber' v='29' />
    <tag k='addr:street' v='Parramatta Road' />
  </node>
  <node id='-109689' visible='true' lat='-33.83388997216' lon='151.02069801739'>
    <tag k='addr:housenumber' v='27' />
    <tag k='addr:street' v='Parramatta Road' />
  </node>
  <node id='-109691' visible='true' lat='-33.83421608284' lon='151.01772998043'>
    <tag k='addr:housenumber' v='30' />
    <tag k='addr:street' v='Berry Street' />
  </node>
  <node id='-109693' visible='true' lat='-33.83440189804' lon='151.01758527294'>
    <tag k='addr:housenumber' v='26' />
    <tag k='addr:street' v='Berry Street' />
  </node>
  <node id='-109695' visible='true' lat='-33.83286466698' lon='151.02084627662'>
    <tag k='addr:housenumber' v='15' />
    <tag k='addr:street' v='Kendall Street' />
  </node>
  <node id='-109697' visible='true' lat='-33.8314380666' lon='151.02488919343'>
    <tag k='addr:housenumber' v='21' />
    <tag k='addr:street' v='Wentworth Street' />
  </node>
  <node id='-109699' visible='true' lat='-33.83105372272' lon='151.02202303663'>
    <tag k='addr:housenumber' v='1' />
    <tag k='addr:street' v='Kay Street' />
  </node>
  <node id='-109701' visible='true' lat='-33.8322378991' lon='151.01872228745'>
    <tag k='addr:housenumber' v='49' />
    <tag k='addr:street' v='George Street' />
  </node>
  <node id='-109703' visible='true' lat='-33.83236002442' lon='151.01864484576'>
    <tag k='addr:housenumber' v='47' />
    <tag k='addr:street' v='George Street' />
  </node>
  <node id='-109705' visible='true' lat='-33.83388281941' lon='151.02212625599'>
    <tag k='addr:housenumber' v='4' />
    <tag k='addr:street' v='Harbord Street' />
  </node>
  <node id='-109707' visible='true' lat='-33.83033512587' lon='151.02285200641'>
    <tag k='addr:housenumber' v='50-54' />
    <tag k='addr:street' v='Wentworth Street' />
  </node>
  <node id='-109709' visible='true' lat='-33.83035501258' lon='151.02088231458'>
    <tag k='addr:housenumber' v='1A' />
    <tag k='addr:street' v='Unwin Street' />
  </node>
  <node id='-109711' visible='true' lat='-33.83308206828' lon='151.02098847967'>
    <tag k='addr:housenumber' v='13' />
    <tag k='addr:street' v='Kendall Street' />
  </node>
  <node id='-109713' visible='true' lat='-33.83310900455' lon='151.02069344861'>
    <tag k='addr:housenumber' v='11' />
    <tag k='addr:street' v='Kendall Street' />
  </node>
  <node id='-109715' visible='true' lat='-33.83347328832' lon='151.01793385823'>
    <tag k='addr:housenumber' v='50-52' />
    <tag k='addr:street' v='Parramatta Road' />
  </node>
  <node id='-109717' visible='true' lat='-33.83402951835' lon='151.01743728015'>
    <tag k='addr:housenumber' v='25' />
    <tag k='addr:street' v='George Street' />
  </node>
  <node id='-109719' visible='true' lat='-33.83393966176' lon='151.01794188324'>
    <tag k='addr:housenumber' v='38' />
    <tag k='addr:street' v='Berry Street' />
  </node>
  <node id='-109721' visible='true' lat='-33.83375536318' lon='151.01764898641'>
    <tag k='addr:housenumber' v='31' />
    <tag k='addr:street' v='George Street' />
  </node>
  <node id='-109723' visible='true' lat='-33.83396024873' lon='151.01863198995'>
    <tag k='addr:housenumber' v='39-41' />
    <tag k='addr:street' v='Berry Street' />
  </node>
  <node id='-109725' visible='true' lat='-33.83438203059' lon='151.01646244223'>
    <tag k='addr:housenumber' v='12' />
    <tag k='addr:street' v='George Street' />
  </node>
  <node id='-109727' visible='true' lat='-33.83511096149' lon='151.02271483417'>
    <tag k='addr:housenumber' v='1' />
    <tag k='addr:street' v='Parramatta Road' />
  </node>
  <node id='-109729' visible='true' lat='-33.83452771237' lon='151.0226942987'>
    <tag k='addr:housenumber' v='5' />
    <tag k='addr:street' v='Harbord Street' />
  </node>
  <node id='3985384939' action='modify' timestamp='2016-02-03T01:34:57Z' uid='46482' user='Leon K' visible='true' version='1' changeset='36969555' lat='-33.8318842' lon='151.0181008' />
  <node id='3985384945' action='modify' timestamp='2016-02-03T01:34:57Z' uid='46482' user='Leon K' visible='true' version='1' changeset='36969555' lat='-33.8321003' lon='151.0182548' />
  <node id='3985384947' action='modify' timestamp='2016-02-03T01:34:57Z' uid='46482' user='Leon K' visible='true' version='1' changeset='36969555' lat='-33.831986' lon='151.0183288' />
  <node id='3985384955' action='modify' timestamp='2016-02-03T01:34:57Z' uid='46482' user='Leon K' visible='true' version='1' changeset='36969555' lat='-33.8319984' lon='151.0180269' />
  <node id='6631242530' action='modify' timestamp='2019-07-19T11:59:20Z' uid='5715' user='Hoylen Sue' visible='true' version='1' changeset='72427715' lat='-33.8334107' lon='151.0195743' />
  <node id='6631242531' action='modify' timestamp='2019-07-19T11:59:20Z' uid='5715' user='Hoylen Sue' visible='true' version='1' changeset='72427715' lat='-33.8334597' lon='151.0195448' />
  <node id='6631242532' action='modify' timestamp='2019-07-19T11:59:20Z' uid='5715' user='Hoylen Sue' visible='true' version='1' changeset='72427715' lat='-33.8334998' lon='151.0196306' />
  <node id='6631242533' action='modify' timestamp='2019-07-19T11:59:20Z' uid='5715' user='Hoylen Sue' visible='true' version='1' changeset='72427715' lat='-33.8335823' lon='151.019585' />
  <node id='6631242534' action='modify' timestamp='2019-07-19T11:59:20Z' uid='5715' user='Hoylen Sue' visible='true' version='1' changeset='72427715' lat='-33.8336201' lon='151.0196842' />
  <node id='6631242535' action='modify' timestamp='2019-07-19T11:59:20Z' uid='5715' user='Hoylen Sue' visible='true' version='1' changeset='72427715' lat='-33.8334909' lon='151.0197647' />
  <way id='395698960' action='modify' timestamp='2016-02-03T01:34:58Z' uid='46482' user='Leon K' visible='true' version='1' changeset='36969555'>
    <nd ref='3985384939' />
    <nd ref='3985384947' />
    <nd ref='3985384945' />
    <nd ref='3985384955' />
    <nd ref='3985384939' />
    <tag k='addr:housenumber' v='48' />
    <tag k='addr:street' v='George Street' />
    <tag k='building' v='yes' />
  </way>
  <way id='705736093' action='modify' timestamp='2019-07-19T11:59:20Z' uid='5715' user='Hoylen Sue' visible='true' version='1' changeset='72427715'>
    <nd ref='6631242530' />
    <nd ref='6631242531' />
    <nd ref='6631242532' />
    <nd ref='6631242533' />
    <nd ref='6631242534' />
    <nd ref='6631242535' />
    <nd ref='6631242530' />
    <tag k='addr:housenumber' v='39-43' />
    <tag k='addr:street' v='Parramatta Road' />
    <tag k='amenity' v='car_rental' />
    <tag k='brand' v='Hertz' />
    <tag k='brand:wikidata' v='Q1543874' />
    <tag k='brand:wikipedia' v='en:The Hertz Corporation' />
    <tag k='building' v='yes' />
    <tag k='building:levels' v='1' />
    <tag k='name' v='Hertz' />
  </way>
</osm>
