<?xml version='1.0' encoding='UTF-8'?>
<osm version='0.6' generator='JOSM'>
  <node id='-38981' lat='-33.826569' lon='151.01135'>
    <tag k='addr:housenumber' v='28' />
    <tag k='addr:street' v='Bowden Street' />
  </node>
  <node id='-38983' lat='-33.822824' lon='151.013052'>
    <tag k='addr:housenumber' v='18' />
    <tag k='addr:street' v='Crown Street' />
  </node>
  <node id='-38985' lat='-33.823392' lon='151.013243'>
    <tag k='addr:housenumber' v='144' />
    <tag k='addr:street' v='Good Street' />
  </node>
  <node id='-38987' lat='-33.819918' lon='151.010491'>
    <tag k='addr:housenumber' v='52' />
    <tag k='addr:street' v='Albion Street' />
  </node>
  <node id='-38989' lat='-33.820671' lon='151.01328'>
    <tag k='addr:housenumber' v='26' />
    <tag k='addr:street' v='Alice Street' />
  </node>
  <node id='-38991' lat='-33.825249' lon='151.010624'>
    <tag k='addr:housenumber' v='29' />
    <tag k='addr:street' v='Harris Street' />
  </node>
  <node id='-38993' lat='-33.821431' lon='151.009764'>
    <tag k='addr:housenumber' v='15' />
    <tag k='addr:street' v='Albion Street' />
  </node>
  <node id='-38995' lat='-33.826679' lon='151.012847'>
    <tag k='addr:housenumber' v='2' />
    <tag k='addr:street' v='Bowden Street' />
  </node>
  <node id='-39015' lat='-33.819742' lon='151.01155'>
    <tag k='addr:housenumber' v='87' />
    <tag k='addr:street' v='Harris Street' />
  </node>
  <node id='-39097' lat='-33.821267' lon='151.010653'>
    <tag k='addr:housenumber' v='84' />
    <tag k='addr:street' v='Harris Street' />
  </node>
  <node id='-39099' lat='-33.821737' lon='151.010214'>
    <tag k='addr:housenumber' v='16' />
    <tag k='addr:street' v='Albion Street' />
  </node>
  <node id='-39101' lat='-33.820177' lon='151.012172'>
    <tag k='addr:housenumber' v='5' />
    <tag k='addr:street' v='Ruse Street' />
  </node>
  <node id='-39111' lat='-33.82153' lon='151.00878'>
    <tag k='addr:housenumber' v='74' />
    <tag k='addr:street' v='Wigram Street' />
  </node>
  <node id='-39113' lat='-33.822634' lon='151.011493'>
    <tag k='addr:housenumber' v='2' />
    <tag k='addr:street' v='Crown Street' />
  </node>
  <node id='-39115' lat='-33.820167' lon='151.010827'>
    <tag k='addr:housenumber' v='106' />
    <tag k='addr:street' v='Harris Street' />
  </node>
  <node id='-39117' lat='-33.82235' lon='151.011153'>
    <tag k='addr:housenumber' v='59' />
    <tag k='addr:street' v='Harris Street' />
  </node>
  <node id='-39133' lat='-33.822027' lon='151.010538'>
    <tag k='addr:housenumber' v='66' />
    <tag k='addr:street' v='Harris Street' />
  </node>
  <node id='-39135' lat='-33.822357' lon='151.010006'>
    <tag k='addr:housenumber' v='58' />
    <tag k='addr:street' v='Marion Street' />
  </node>
  <node id='-39137' lat='-33.82046' lon='151.008361'>
    <tag k='addr:housenumber' v='5' />
    <tag k='addr:street' v='Ada Street' />
  </node>
  <node id='-39139' lat='-33.820839' lon='151.009853'>
    <tag k='addr:housenumber' v='27' />
    <tag k='addr:street' v='Albion Street' />
  </node>
  <node id='-39141' lat='-33.819661' lon='151.012415'>
    <tag k='addr:housenumber' v='8' />
    <tag k='addr:street' v='Ruse Street' />
  </node>
  <node id='-39143' lat='-33.820293' lon='151.009569'>
    <tag k='addr:housenumber' v='95' />
    <tag k='addr:street' v='Wigram Street' />
  </node>
  <node id='-39145' lat='-33.821184' lon='151.008812'>
    <tag k='addr:housenumber' v='82' />
    <tag k='addr:street' v='Wigram Street' />
  </node>
  <node id='-39147' lat='-33.823808' lon='151.012187'>
    <tag k='addr:housenumber' v='7' />
    <tag k='addr:street' v='Brisbane Street' />
  </node>
  <node id='-39163' lat='-33.820082' lon='151.010835'>
    <tag k='addr:housenumber' v='108' />
    <tag k='addr:street' v='Harris Street' />
  </node>
  <node id='-39281' lat='-33.820549' lon='151.008142'>
    <tag k='addr:housenumber' v='48' />
    <tag k='addr:street' v='Station Street East' />
  </node>
  <node id='-39283' lat='-33.820332' lon='151.00993'>
    <tag k='addr:housenumber' v='39' />
    <tag k='addr:street' v='Albion Street' />
  </node>
  <node id='-39285' lat='-33.821186' lon='151.012492'>
    <tag k='addr:housenumber' v='11' />
    <tag k='addr:street' v='Alice Street' />
  </node>
  <node id='-39303' action='modify' lat='-33.821648' lon='151.01128662598'>
    <tag k='addr:housenumber' v='65' />
    <tag k='addr:street' v='Harris Street' />
  </node>
  <node id='-39305' action='modify' lat='-33.82163244072' lon='151.01125418701'>
    <tag k='addr:housenumber' v='1/65' />
    <tag k='addr:street' v='Harris Street' />
  </node>
  <node id='-39307' action='modify' lat='-33.82166355928' lon='151.01125418701'>
    <tag k='addr:housenumber' v='2/65' />
    <tag k='addr:street' v='Harris Street' />
  </node>
  <node id='-39309' action='modify' lat='-33.822714' lon='151.00841962625'>
    <tag k='addr:housenumber' v='55' />
    <tag k='addr:street' v='Marion Street' />
  </node>
  <node id='-39311' action='modify' lat='-33.822714' lon='151.00837637375'>
    <tag k='addr:housenumber' v='1/55' />
    <tag k='addr:street' v='Marion Street' />
  </node>
  <node id='-39313' lat='-33.826442' lon='151.010588'>
    <tag k='addr:housenumber' v='36A' />
    <tag k='addr:street' v='Bowden Street' />
  </node>
  <node id='-39315' lat='-33.823507' lon='151.008306'>
    <tag k='addr:housenumber' v='44' />
    <tag k='addr:street' v='Wigram Street' />
  </node>
  <node id='-39317' action='modify' lat='-33.822221' lon='151.00956562612'>
    <tag k='addr:housenumber' v='52' />
    <tag k='addr:street' v='Marion Street' />
  </node>
  <node id='-39319' action='modify' lat='-33.82220544072' lon='151.00953318694'>
    <tag k='addr:housenumber' v='52A' />
    <tag k='addr:street' v='Marion Street' />
  </node>
  <node id='-39321' action='modify' lat='-33.82223655928' lon='151.00953318694'>
    <tag k='addr:housenumber' v='52B' />
    <tag k='addr:street' v='Marion Street' />
  </node>
  <node id='-39323' action='modify' lat='-33.819465' lon='151.01006362543'>
    <tag k='addr:housenumber' v='105' />
    <tag k='addr:street' v='Wigram Street' />
  </node>
  <node id='-39325' action='modify' lat='-33.81944944072' lon='151.01003118729'>
    <tag k='addr:housenumber' v='1/105' />
    <tag k='addr:street' v='Wigram Street' />
  </node>
  <node id='-39327' action='modify' lat='-33.81948055928' lon='151.01003118729'>
    <tag k='addr:housenumber' v='2/105' />
    <tag k='addr:street' v='Wigram Street' />
  </node>
  <node id='-39329' lat='-33.823237' lon='151.008373'>
    <tag k='addr:housenumber' v='48' />
    <tag k='addr:street' v='Wigram Street' />
  </node>
  <node id='-39341' lat='-33.819347' lon='151.01161'>
    <tag k='addr:housenumber' v='93' />
    <tag k='addr:street' v='Harris Street' />
  </node>
  <node id='-39343' action='modify' lat='-33.822723' lon='151.00945762625'>
    <tag k='addr:housenumber' v='67' />
    <tag k='addr:street' v='Marion Street' />
  </node>
  <node id='-39345' action='modify' lat='-33.82270744072' lon='151.00942518687'>
    <tag k='addr:housenumber' v='67A' />
    <tag k='addr:street' v='Marion Street' />
  </node>
  <node id='-39347' action='modify' lat='-33.82273855928' lon='151.00942518687'>
    <tag k='addr:housenumber' v='67B' />
    <tag k='addr:street' v='Marion Street' />
  </node>
  <node id='-39391' lat='-33.822231' lon='151.011999'>
    <tag k='addr:housenumber' v='80' />
    <tag k='addr:street' v='Weston Street' />
  </node>
  <node id='-39393' lat='-33.821477' lon='151.00939'>
    <tag k='addr:housenumber' v='73' />
    <tag k='addr:street' v='Wigram Street' />
  </node>
  <node id='-39395' lat='-33.821358' lon='151.008798'>
    <tag k='addr:housenumber' v='78' />
    <tag k='addr:street' v='Wigram Street' />
  </node>
  <node id='-39397' lat='-33.82187' lon='151.016165'>
    <tag k='addr:housenumber' v='126' />
    <tag k='addr:street' v='Alfred Street' />
  </node>
  <node id='-39399' lat='-33.822366' lon='151.010486'>
    <tag k='addr:housenumber' v='58' />
    <tag k='addr:street' v='Harris Street' />
  </node>
  <node id='-39401' lat='-33.820391' lon='151.008191'>
    <tag k='addr:housenumber' v='3' />
    <tag k='addr:street' v='Ada Street' />
  </node>
  <node id='-39403' lat='-33.82088' lon='151.015531'>
    <tag k='addr:housenumber' v='50' />
    <tag k='addr:street' v='Alice Street' />
  </node>
  <node id='-39405' action='modify' lat='-33.826613' lon='151.01218962723'>
    <tag k='addr:housenumber' v='14' />
    <tag k='addr:street' v='Bowden Street' />
  </node>
  <node id='-39407' action='modify' lat='-33.826613' lon='151.01214637277'>
    <tag k='addr:housenumber' v='2/14' />
    <tag k='addr:street' v='Bowden Street' />
  </node>
  <node id='-39409' lat='-33.819482' lon='151.014401'>
    <tag k='addr:housenumber' v='2A' />
    <tag k='addr:street' v='Gregory Place' />
  </node>
  <node id='-39491' lat='-33.824153' lon='151.007902'>
    <tag k='addr:housenumber' v='5' />
    <tag k='addr:street' v='Cambridge Street' />
  </node>
  <node id='-39493' lat='-33.826311' lon='151.012816'>
    <tag k='addr:housenumber' v='110' />
    <tag k='addr:street' v='Good Street' />
  </node>
  <node id='-39495' lat='-33.819217' lon='151.011694'>
    <tag k='addr:housenumber' v='95' />
    <tag k='addr:street' v='Harris Street' />
  </node>
  <node id='-39497' lat='-33.821603' lon='151.012304'>
    <tag k='addr:housenumber' v='81' />
    <tag k='addr:street' v='Weston Street' />
  </node>
  <node id='-39499' action='modify' lat='-33.826185' lon='151.00786462713'>
    <tag k='addr:housenumber' v='10' />
    <tag k='addr:street' v='Wigram Street' />
  </node>
  <node id='-39501' action='modify' lat='-33.82616944072' lon='151.00783218644'>
    <tag k='addr:housenumber' v='1/10' />
    <tag k='addr:street' v='Wigram Street' />
  </node>
  <node id='-39503' action='modify' lat='-33.82620055928' lon='151.00783218644'>
    <tag k='addr:housenumber' v='2/10' />
    <tag k='addr:street' v='Wigram Street' />
  </node>
  <node id='-39535' lat='-33.82217' lon='151.012275'>
    <tag k='addr:housenumber' v='78' />
    <tag k='addr:street' v='Weston Street' />
  </node>
  <node id='-39537' action='modify' lat='-33.822323' lon='151.01221762615'>
    <tag k='addr:housenumber' v='78A' />
    <tag k='addr:street' v='Weston Street' />
  </node>
  <node id='-39539' action='modify' lat='-33.82230744072' lon='151.01218518693'>
    <tag k='addr:housenumber' v='1/78A' />
    <tag k='addr:street' v='Weston Street' />
  </node>
  <node id='-39541' action='modify' lat='-33.82233855928' lon='151.01218518693'>
    <tag k='addr:housenumber' v='2/78A' />
    <tag k='addr:street' v='Weston Street' />
  </node>
  <node id='-39557' lat='-33.818529' lon='151.010135'>
    <tag k='addr:housenumber' v='18' />
    <tag k='addr:street' v='Parkes Street' />
  </node>
  <node id='-39559' lat='-33.822175' lon='151.008839'>
    <tag k='addr:housenumber' v='50' />
    <tag k='addr:street' v='Marion Street' />
  </node>
  <node id='-39561' lat='-33.821752' lon='151.008771'>
    <tag k='addr:housenumber' v='68' />
    <tag k='addr:street' v='Wigram Street' />
  </node>
  <node id='-39563' lat='-33.820529' lon='151.010398'>
    <tag k='addr:housenumber' v='38' />
    <tag k='addr:street' v='Albion Street' />
  </node>
  <node id='-39565' lat='-33.820094' lon='151.008668'>
    <tag k='addr:housenumber' v='6' />
    <tag k='addr:street' v='Ada Street' />
  </node>
  <node id='-39587' lat='-33.821175' lon='151.012634'>
    <tag k='addr:housenumber' v='11A' />
    <tag k='addr:street' v='Alice Street' />
  </node>
  <node id='-39589' lat='-33.821517' lon='151.011283'>
    <tag k='addr:housenumber' v='67' />
    <tag k='addr:street' v='Harris Street' />
  </node>
  <node id='-39591' lat='-33.822793' lon='151.009973'>
    <tag k='addr:housenumber' v='77' />
    <tag k='addr:street' v='Marion Street' />
  </node>
  <node id='-39593' lat='-33.819384' lon='151.010486'>
    <tag k='addr:housenumber' v='17A' />
    <tag k='addr:street' v='Parkes Street' />
  </node>
  <node id='-39595' lat='-33.82059' lon='151.010756'>
    <tag k='addr:housenumber' v='100' />
    <tag k='addr:street' v='Harris Street' />
  </node>
  <node id='-39597' lat='-33.821455' lon='151.008348'>
    <tag k='addr:housenumber' v='26' />
    <tag k='addr:street' v='Station Street East' />
  </node>
  <node id='-39683' lat='-33.822811' lon='151.012945'>
    <tag k='addr:housenumber' v='16' />
    <tag k='addr:street' v='Crown Street' />
  </node>
  <node id='-39685' lat='-33.820474' lon='151.011443'>
    <tag k='addr:housenumber' v='4' />
    <tag k='addr:street' v='Alice Street' />
  </node>
  <node id='-39821' lat='-33.819706' lon='151.016439'>
    <tag k='addr:housenumber' v='138' />
    <tag k='addr:street' v='Alfred Street' />
  </node>
  <node id='-39823' lat='-33.820137' lon='151.010458'>
    <tag k='addr:housenumber' v='46' />
    <tag k='addr:street' v='Albion Street' />
  </node>
  <node id='-39825' lat='-33.820789' lon='151.014387'>
    <tag k='addr:housenumber' v='36' />
    <tag k='addr:street' v='Alice Street' />
  </node>
  <node id='-39931' lat='-33.818847' lon='151.009155'>
    <tag k='addr:housenumber' v='118' />
    <tag k='addr:street' v='Wigram Street' />
  </node>
  <node id='-39933' lat='-33.826601' lon='151.012003'>
    <tag k='addr:housenumber' v='16' />
    <tag k='addr:street' v='Bowden Street' />
  </node>
  <node id='-39935' lat='-33.820493' lon='151.01162'>
    <tag k='addr:housenumber' v='6' />
    <tag k='addr:street' v='Alice Street' />
  </node>
  <node id='-39937' lat='-33.819056' lon='151.009897'>
    <tag k='addr:housenumber' v='9' />
    <tag k='addr:street' v='Parkes Street' />
  </node>
  <node id='-39965' lat='-33.820759' lon='151.010727'>
    <tag k='addr:housenumber' v='96' />
    <tag k='addr:street' v='Harris Street' />
  </node>
  <node id='-39967' lat='-33.819791' lon='151.013224'>
    <tag k='addr:housenumber' v='18' />
    <tag k='addr:street' v='Ruse Street' />
  </node>
  <node id='-39969' lat='-33.826457' lon='151.010719'>
    <tag k='addr:housenumber' v='36' />
    <tag k='addr:street' v='Bowden Street' />
  </node>
  <node id='-39971' lat='-33.8232' lon='151.01121'>
    <tag k='addr:housenumber' v='5' />
    <tag k='addr:street' v='Crown Street' />
  </node>
  <node id='-39997' lat='-33.821145' lon='151.010305'>
    <tag k='addr:housenumber' v='28' />
    <tag k='addr:street' v='Albion Street' />
  </node>
  <node id='-40041' lat='-33.820104' lon='151.011495'>
    <tag k='addr:housenumber' v='83' />
    <tag k='addr:street' v='Harris Street' />
  </node>
  <node id='-40043' lat='-33.822157' lon='151.01015'>
    <tag k='addr:housenumber' v='6' />
    <tag k='addr:street' v='Albion Street' />
  </node>
  <node id='-40077' lat='-33.819737' lon='151.0129'>
    <tag k='addr:housenumber' v='14' />
    <tag k='addr:street' v='Ruse Street' />
  </node>
  <node id='-40161' action='modify' lat='-33.825997' lon='151.00989662708'>
    <tag k='addr:housenumber' v='16' />
    <tag k='addr:street' v='Harris Street' />
  </node>
  <node id='-40163' action='modify' lat='-33.82598144072' lon='151.00986418646'>
    <tag k='addr:housenumber' v='1/16' />
    <tag k='addr:street' v='Harris Street' />
  </node>
  <node id='-40165' action='modify' lat='-33.82601255928' lon='151.00986418646'>
    <tag k='addr:housenumber' v='2/16' />
    <tag k='addr:street' v='Harris Street' />
  </node>
  <node id='-40167' lat='-33.819992' lon='151.015959'>
    <tag k='addr:housenumber' v='4' />
    <tag k='addr:street' v='Gregory Place' />
  </node>
  <node id='-40169' lat='-33.82167' lon='151.012735'>
    <tag k='addr:housenumber' v='77' />
    <tag k='addr:street' v='Weston Street' />
  </node>
  <node id='-40209' lat='-33.82214' lon='151.008438'>
    <tag k='addr:housenumber' v='42' />
    <tag k='addr:street' v='Marion Street' />
  </node>
  <node id='-40211' lat='-33.820268' lon='151.013007'>
    <tag k='addr:housenumber' v='15' />
    <tag k='addr:street' v='Ruse Street' />
  </node>
  <node id='-40213' lat='-33.820142' lon='151.011845'>
    <tag k='addr:housenumber' v='1' />
    <tag k='addr:street' v='Ruse Street' />
  </node>
  <node id='-40215' lat='-33.819816' lon='151.00901'>
    <tag k='addr:housenumber' v='110-114' />
    <tag k='addr:street' v='Wigram Street' />
  </node>
  <node id='-40217' lat='-33.821045' lon='151.011736'>
    <tag k='addr:housenumber' v='3' />
    <tag k='addr:street' v='Alice Street' />
  </node>
  <node id='-40219' lat='-33.821427' lon='151.011297'>
    <tag k='addr:housenumber' v='69' />
    <tag k='addr:street' v='Harris Street' />
  </node>
  <node id='-40221' lat='-33.820078' lon='151.009969'>
    <tag k='addr:housenumber' v='45' />
    <tag k='addr:street' v='Albion Street' />
  </node>
  <node id='-40223' lat='-33.821128' lon='151.011942'>
    <tag k='addr:housenumber' v='5' />
    <tag k='addr:street' v='Alice Street' />
  </node>
  <node id='-40225' lat='-33.8227' lon='151.009213'>
    <tag k='addr:housenumber' v='63' />
    <tag k='addr:street' v='Marion Street' />
  </node>
  <node id='-40227' lat='-33.819069' lon='151.010004'>
    <tag k='addr:housenumber' v='11' />
    <tag k='addr:street' v='Parkes Street' />
  </node>
  <node id='-40229' lat='-33.822302' lon='151.012639'>
    <tag k='addr:housenumber' v='74' />
    <tag k='addr:street' v='Weston Street' />
  </node>
  <node id='-40249' lat='-33.822198' lon='151.010519'>
    <tag k='addr:housenumber' v='62' />
    <tag k='addr:street' v='Harris Street' />
  </node>
  <node id='-40251' lat='-33.821508' lon='151.008351'>
    <tag k='addr:housenumber' v='24' />
    <tag k='addr:street' v='Station Street East' />
  </node>
  <node id='-40253' lat='-33.820716' lon='151.009506'>
    <tag k='addr:housenumber' v='87' />
    <tag k='addr:street' v='Wigram Street' />
  </node>
  <node id='-40283' lat='-33.82664' lon='151.010491'>
    <tag k='addr:housenumber' v='11' />
    <tag k='addr:street' v='Harris Street' />
  </node>
  <node id='-40299' lat='-33.820587' lon='151.016413'>
    <tag k='addr:housenumber' v='128A' />
    <tag k='addr:street' v='Alfred Street' />
  </node>
  <node id='-40301' lat='-33.826585' lon='151.011801'>
    <tag k='addr:housenumber' v='20' />
    <tag k='addr:street' v='Bowden Street' />
  </node>
  <node id='-40303' lat='-33.821224' lon='151.009795'>
    <tag k='addr:housenumber' v='19' />
    <tag k='addr:street' v='Albion Street' />
  </node>
  <node id='-40305' lat='-33.820928' lon='151.010705'>
    <tag k='addr:housenumber' v='92' />
    <tag k='addr:street' v='Harris Street' />
  </node>
  <node id='-40307' action='modify' lat='-33.822569' lon='151.00861962621'>
    <tag k='addr:housenumber' v='59' />
    <tag k='addr:street' v='Marion Street' />
  </node>
  <node id='-40309' action='modify' lat='-33.82255344072' lon='151.00858718689'>
    <tag k='addr:housenumber' v='59A' />
    <tag k='addr:street' v='Marion Street' />
  </node>
  <node id='-40311' action='modify' lat='-33.82258455928' lon='151.00858718689'>
    <tag k='addr:housenumber' v='59C' />
    <tag k='addr:street' v='Marion Street' />
  </node>
  <node id='-40313' lat='-33.826432' lon='151.009813'>
    <tag k='addr:housenumber' v='12' />
    <tag k='addr:street' v='Harris Street' />
  </node>
  <node id='-40347' lat='-33.820795' lon='151.008841'>
    <tag k='addr:housenumber' v='94' />
    <tag k='addr:street' v='Wigram Street' />
  </node>
  <node id='-40349' lat='-33.820403' lon='151.010417'>
    <tag k='addr:housenumber' v='40' />
    <tag k='addr:street' v='Albion Street' />
  </node>
  <node id='-40351' lat='-33.819052' lon='151.016565'>
    <tag k='addr:housenumber' v='150' />
    <tag k='addr:street' v='Alfred Street' />
  </node>
  <node id='-40371' lat='-33.820104' lon='151.008575'>
    <tag k='addr:housenumber' v='4' />
    <tag k='addr:street' v='Ada Street' />
  </node>
  <node id='-40373' action='modify' lat='-33.826595' lon='151.01190162723'>
    <tag k='addr:housenumber' v='18' />
    <tag k='addr:street' v='Bowden Street' />
  </node>
  <node id='-40375' action='modify' lat='-33.826595' lon='151.01185837277'>
    <tag k='addr:housenumber' v='1/18' />
    <tag k='addr:street' v='Bowden Street' />
  </node>
  <node id='-40421' lat='-33.822554' lon='151.014963'>
    <tag k='addr:housenumber' v='58' />
    <tag k='addr:street' v='Weston Street' />
  </node>
  <node id='-40423' lat='-33.821067' lon='151.009452'>
    <tag k='addr:housenumber' v='79' />
    <tag k='addr:street' v='Wigram Street' />
  </node>
  <node id='-40425' lat='-33.820431' lon='151.008993'>
    <tag k='addr:housenumber' v='102' />
    <tag k='addr:street' v='Wigram Street' />
  </node>
  <node id='-40427' lat='-33.821903' lon='151.010182'>
    <tag k='addr:housenumber' v='12' />
    <tag k='addr:street' v='Albion Street' />
  </node>
  <node id='-40467' lat='-33.820136' lon='151.008795'>
    <tag k='addr:housenumber' v='12' />
    <tag k='addr:street' v='Ada Street' />
  </node>
  <node id='-40469' lat='-33.820506' lon='151.010769'>
    <tag k='addr:housenumber' v='102' />
    <tag k='addr:street' v='Harris Street' />
  </node>
  <node id='-40497' lat='-33.819481' lon='151.011589'>
    <tag k='addr:housenumber' v='91' />
    <tag k='addr:street' v='Harris Street' />
  </node>
  <node id='-40499' lat='-33.822237' lon='151.009274'>
    <tag k='addr:housenumber' v='55' />
    <tag k='addr:street' v='Wigram Street' />
  </node>
  <node id='-40501' lat='-33.819377' lon='151.016488'>
    <tag k='addr:housenumber' v='144' />
    <tag k='addr:street' v='Alfred Street' />
  </node>
  <node id='-40557' lat='-33.81985' lon='151.013559'>
    <tag k='addr:housenumber' v='22' />
    <tag k='addr:street' v='Ruse Street' />
  </node>
  <node id='-40559' lat='-33.81984' lon='151.009637'>
    <tag k='addr:housenumber' v='103' />
    <tag k='addr:street' v='Wigram Street' />
  </node>
  <node id='-40639' lat='-33.820214' lon='151.010439'>
    <tag k='addr:housenumber' v='44' />
    <tag k='addr:street' v='Albion Street' />
  </node>
  <node id='-40641' lat='-33.822575' lon='151.008649'>
    <tag k='addr:housenumber' v='59B' />
    <tag k='addr:street' v='Marion Street' />
  </node>
  <node id='-40691' lat='-33.820528' lon='151.011954'>
    <tag k='addr:housenumber' v='10' />
    <tag k='addr:street' v='Alice Street' />
  </node>
  <node id='-40693' lat='-33.824639' lon='151.013005'>
    <tag k='addr:housenumber' v='134' />
    <tag k='addr:street' v='Good Street' />
  </node>
  <node id='-40695' lat='-33.823428' lon='151.012909'>
    <tag k='addr:housenumber' v='15' />
    <tag k='addr:street' v='Crown Street' />
  </node>
  <node id='-40805' lat='-33.82182' lon='151.010202'>
    <tag k='addr:housenumber' v='14' />
    <tag k='addr:street' v='Albion Street' />
  </node>
  <node id='-40807' lat='-33.826645' lon='151.012515'>
    <tag k='addr:housenumber' v='10' />
    <tag k='addr:street' v='Bowden Street' />
  </node>
  <node id='-40821' lat='-33.821229' lon='151.010292'>
    <tag k='addr:housenumber' v='26' />
    <tag k='addr:street' v='Albion Street' />
  </node>
  <node id='-40841' lat='-33.820227' lon='151.011477'>
    <tag k='addr:housenumber' v='81' />
    <tag k='addr:street' v='Harris Street' />
  </node>
  <node id='-40843' lat='-33.820321' lon='151.013499'>
    <tag k='addr:housenumber' v='21' />
    <tag k='addr:street' v='Ruse Street' />
  </node>
  <node id='-40845' lat='-33.819683' lon='151.010546'>
    <tag k='addr:housenumber' v='6A' />
    <tag k='addr:street' v='Una Street' />
  </node>
  <node id='-40847' lat='-33.820208' lon='151.009581'>
    <tag k='addr:housenumber' v='97' />
    <tag k='addr:street' v='Wigram Street' />
  </node>
  <node id='-40849' lat='-33.824177' lon='151.008131'>
    <tag k='addr:housenumber' v='1' />
    <tag k='addr:street' v='Cambridge Street' />
  </node>
  <node id='-40865' lat='-33.8185' lon='151.010304'>
    <tag k='addr:housenumber' v='20' />
    <tag k='addr:street' v='Parkes Street' />
  </node>
  <node id='-40867' lat='-33.820885' lon='151.00948'>
    <tag k='addr:housenumber' v='83' />
    <tag k='addr:street' v='Wigram Street' />
  </node>
  <node id='-40881' lat='-33.82016' lon='151.012009'>
    <tag k='addr:housenumber' v='3' />
    <tag k='addr:street' v='Ruse Street' />
  </node>
  <node id='-40883' lat='-33.821815' lon='151.009338'>
    <tag k='addr:housenumber' v='65' />
    <tag k='addr:street' v='Wigram Street' />
  </node>
  <node id='-40903' lat='-33.819844' lon='151.01001'>
    <tag k='addr:housenumber' v='51' />
    <tag k='addr:street' v='Albion Street' />
  </node>
  <node id='-40905' lat='-33.82483' lon='151.011279'>
    <tag k='addr:housenumber' v='23' />
    <tag k='addr:street' v='Allen Street' />
  </node>
  <node id='-40907' lat='-33.825518' lon='151.010661'>
    <tag k='addr:housenumber' v='25' />
    <tag k='addr:street' v='Harris Street' />
  </node>
  <node id='-40909' lat='-33.821773' lon='151.010577'>
    <tag k='addr:housenumber' v='72' />
    <tag k='addr:street' v='Harris Street' />
  </node>
  <node id='-40911' lat='-33.819079' lon='151.010107'>
    <tag k='addr:housenumber' v='13' />
    <tag k='addr:street' v='Parkes Street' />
  </node>
  <node id='-40953' lat='-33.821614' lon='151.008775'>
    <tag k='addr:housenumber' v='72' />
    <tag k='addr:street' v='Wigram Street' />
  </node>
  <node id='-40955' lat='-33.818184' lon='151.009942'>
    <tag k='addr:housenumber' v='113' />
    <tag k='addr:street' v='Wigram Street' />
  </node>
  <node id='-40957' lat='-33.821444' lon='151.008788'>
    <tag k='addr:housenumber' v='76' />
    <tag k='addr:street' v='Wigram Street' />
  </node>
  <node id='-41101' lat='-33.820599' lon='151.012613'>
    <tag k='addr:housenumber' v='18' />
    <tag k='addr:street' v='Alice Street' />
  </node>
  <node id='-41103' lat='-33.821511' lon='151.015508'>
    <tag k='addr:housenumber' v='33' />
    <tag k='addr:street' v='Alice Street' />
  </node>
  <node id='-41131' lat='-33.821351' lon='151.01064'>
    <tag k='addr:housenumber' v='82' />
    <tag k='addr:street' v='Harris Street' />
  </node>
  <node id='-41151' lat='-33.819612' lon='151.011569'>
    <tag k='addr:housenumber' v='89' />
    <tag k='addr:street' v='Harris Street' />
  </node>
  <node id='-41221' action='modify' lat='-33.821601' lon='151.01211162597'>
    <tag k='addr:housenumber' v='83' />
    <tag k='addr:street' v='Weston Street' />
  </node>
  <node id='-41223' action='modify' lat='-33.821601' lon='151.01206837403'>
    <tag k='addr:housenumber' v='83A' />
    <tag k='addr:street' v='Weston Street' />
  </node>
  <node id='-41257' lat='-33.822385' lon='151.013228'>
    <tag k='addr:housenumber' v='70' />
    <tag k='addr:street' v='Weston Street' />
  </node>
  <node id='-41285' lat='-33.820689' lon='151.013443'>
    <tag k='addr:housenumber' v='28' />
    <tag k='addr:street' v='Alice Street' />
  </node>
  <node id='-41287' action='modify' lat='-33.820546' lon='151.0121386257'>
    <tag k='addr:housenumber' v='12' />
    <tag k='addr:street' v='Alice Street' />
  </node>
  <node id='-41289' action='modify' lat='-33.820546' lon='151.0120953743'>
    <tag k='addr:housenumber' v='12A' />
    <tag k='addr:street' v='Alice Street' />
  </node>
  <node id='-41291' lat='-33.82318' lon='151.011029'>
    <tag k='addr:housenumber' v='3' />
    <tag k='addr:street' v='Crown Street' />
  </node>
  <node id='-41293' lat='-33.820416' lon='151.009917'>
    <tag k='addr:housenumber' v='37' />
    <tag k='addr:street' v='Albion Street' />
  </node>
  <node id='-41295' lat='-33.819486' lon='151.016471'>
    <tag k='addr:housenumber' v='142' />
    <tag k='addr:street' v='Alfred Street' />
  </node>
  <node id='-41297' lat='-33.821342' lon='151.011072'>
    <tag k='addr:housenumber' v='69A' />
    <tag k='addr:street' v='Harris Street' />
  </node>
  <node id='-41299' lat='-33.82245' lon='151.010474'>
    <tag k='addr:housenumber' v='56' />
    <tag k='addr:street' v='Harris Street' />
  </node>
  <node id='-41315' lat='-33.824379' lon='151.011516'>
    <tag k='addr:housenumber' v='14' />
    <tag k='addr:street' v='Brisbane Street' />
  </node>
  <node id='-41367' lat='-33.820563' lon='151.012281'>
    <tag k='addr:housenumber' v='14' />
    <tag k='addr:street' v='Alice Street' />
  </node>
  <node id='-41369' lat='-33.821543' lon='151.015818'>
    <tag k='addr:housenumber' v='35A' />
    <tag k='addr:street' v='Alice Street' />
  </node>
  <node id='-41385' lat='-33.822802' lon='151.010081'>
    <tag k='addr:housenumber' v='79' />
    <tag k='addr:street' v='Marion Street' />
  </node>
  <node id='-41387' lat='-33.826662' lon='151.012678'>
    <tag k='addr:housenumber' v='4' />
    <tag k='addr:street' v='Bowden Street' />
  </node>
  <node id='-41389' lat='-33.818551' lon='151.009719'>
    <tag k='addr:housenumber' v='14' />
    <tag k='addr:street' v='Parkes Street' />
  </node>
  <node id='-41391' lat='-33.819661' lon='151.016011'>
    <tag k='addr:housenumber' v='10' />
    <tag k='addr:street' v='Gregory Place' />
  </node>
  <node id='-41393' lat='-33.826489' lon='151.010381'>
    <tag k='addr:housenumber' v='13' />
    <tag k='addr:street' v='Harris Street' />
  </node>
  <node id='-41395' lat='-33.821098' lon='151.010679'>
    <tag k='addr:housenumber' v='88' />
    <tag k='addr:street' v='Harris Street' />
  </node>
  <node id='-41397' lat='-33.822775' lon='151.01279'>
    <tag k='addr:housenumber' v='14' />
    <tag k='addr:street' v='Crown Street' />
  </node>
  <node id='-41399' lat='-33.820344' lon='151.016453'>
    <tag k='addr:housenumber' v='128B' />
    <tag k='addr:street' v='Alfred Street' />
  </node>
  <node id='-41443' lat='-33.819106' lon='151.009708'>
    <tag k='addr:housenumber' v='109' />
    <tag k='addr:street' v='Wigram Street' />
  </node>
  <node id='-41463' lat='-33.822281' lon='151.010499'>
    <tag k='addr:housenumber' v='60' />
    <tag k='addr:street' v='Harris Street' />
  </node>
  <node id='-41465' lat='-33.822726' lon='151.009322'>
    <tag k='addr:housenumber' v='65' />
    <tag k='addr:street' v='Marion Street' />
  </node>
  <node id='-41467' lat='-33.820195' lon='151.012336'>
    <tag k='addr:housenumber' v='7' />
    <tag k='addr:street' v='Ruse Street' />
  </node>
  <node id='-41481' lat='-33.820399' lon='151.009554'>
    <tag k='addr:housenumber' v='93' />
    <tag k='addr:street' v='Wigram Street' />
  </node>
  <node id='-41483' lat='-33.820675' lon='151.010743'>
    <tag k='addr:housenumber' v='98' />
    <tag k='addr:street' v='Harris Street' />
  </node>
  <node id='-41485' lat='-33.82127' lon='151.008802'>
    <tag k='addr:housenumber' v='80' />
    <tag k='addr:street' v='Wigram Street' />
  </node>
  <node id='-41507' lat='-33.822412' lon='151.013462'>
    <tag k='addr:housenumber' v='68' />
    <tag k='addr:street' v='Weston Street' />
  </node>
  <node id='-41509' lat='-33.820173' lon='151.016372'>
    <tag k='addr:housenumber' v='130' />
    <tag k='addr:street' v='Alfred Street' />
  </node>
  <node id='-41511' lat='-33.820635' lon='151.012952'>
    <tag k='addr:housenumber' v='22' />
    <tag k='addr:street' v='Alice Street' />
  </node>
  <node id='-41567' action='modify' lat='-33.82316' lon='151.01087062636'>
    <tag k='addr:housenumber' v='1' />
    <tag k='addr:street' v='Crown Street' />
  </node>
  <node id='-41569' action='modify' lat='-33.82314444072' lon='151.01083818682'>
    <tag k='addr:housenumber' v='1/1' />
    <tag k='addr:street' v='Crown Street' />
  </node>
  <node id='-41571' action='modify' lat='-33.82317555928' lon='151.01083818682'>
    <tag k='addr:housenumber' v='2/1' />
    <tag k='addr:street' v='Crown Street' />
  </node>
  <node id='-41573' lat='-33.821567' lon='151.01024'>
    <tag k='addr:housenumber' v='20' />
    <tag k='addr:street' v='Albion Street' />
  </node>
  <node id='-41575' lat='-33.820653' lon='151.013116'>
    <tag k='addr:housenumber' v='24' />
    <tag k='addr:street' v='Alice Street' />
  </node>
  <node id='-41577' lat='-33.821013' lon='151.010692'>
    <tag k='addr:housenumber' v='90' />
    <tag k='addr:street' v='Harris Street' />
  </node>
  <node id='-41579' lat='-33.822812' lon='151.010298'>
    <tag k='addr:housenumber' v='83' />
    <tag k='addr:street' v='Marion Street' />
  </node>
  <node id='-41581' lat='-33.821943' lon='151.01055'>
    <tag k='addr:housenumber' v='68' />
    <tag k='addr:street' v='Harris Street' />
  </node>
  <node id='-41583' lat='-33.81931' lon='151.008581'>
    <tag k='addr:housenumber' v='18' />
    <tag k='addr:street' v='Kendall Street' />
  </node>
  <node id='-41609' lat='-33.820124' lon='151.009594'>
    <tag k='addr:housenumber' v='99' />
    <tag k='addr:street' v='Wigram Street' />
  </node>
  <node id='-41625' lat='-33.822366' lon='151.01305'>
    <tag k='addr:housenumber' v='70A' />
    <tag k='addr:street' v='Weston Street' />
  </node>
  <node id='-41627' lat='-33.820969' lon='151.009467'>
    <tag k='addr:housenumber' v='81' />
    <tag k='addr:street' v='Wigram Street' />
  </node>
  <node id='-41655' lat='-33.82283' lon='151.010467'>
    <tag k='addr:housenumber' v='85-87' />
    <tag k='addr:street' v='Marion Street' />
  </node>
  <node id='-41657' lat='-33.820912' lon='151.01034'>
    <tag k='addr:housenumber' v='32' />
    <tag k='addr:street' v='Albion Street' />
  </node>
  <node id='-41659' lat='-33.826628' lon='151.012341'>
    <tag k='addr:housenumber' v='12' />
    <tag k='addr:street' v='Bowden Street' />
  </node>
  <node id='-41669' lat='-33.820294' lon='151.010434'>
    <tag k='addr:housenumber' v='42' />
    <tag k='addr:street' v='Albion Street' />
  </node>
  <node id='-41671' lat='-33.821139' lon='151.012353'>
    <tag k='addr:housenumber' v='9' />
    <tag k='addr:street' v='Alice Street' />
  </node>
  <node id='-41683' lat='-33.82619' lon='151.012582'>
    <tag k='addr:housenumber' v='9' />
    <tag k='addr:street' v='Bowden Street' />
  </node>
  <node id='-41699' lat='-33.819443' lon='151.016043'>
    <tag k='addr:housenumber' v='14' />
    <tag k='addr:street' v='Gregory Place' />
  </node>
  <node id='-41701' lat='-33.821858' lon='151.010563'>
    <tag k='addr:housenumber' v='70' />
    <tag k='addr:street' v='Harris Street' />
  </node>
  <node id='-41703' action='modify' lat='-33.822703' lon='151.00833962625'>
    <tag k='addr:housenumber' v='55A' />
    <tag k='addr:street' v='Marion Street' />
  </node>
  <node id='-41705' action='modify' lat='-33.822703' lon='151.00829637375'>
    <tag k='addr:housenumber' v='1/55A' />
    <tag k='addr:street' v='Marion Street' />
  </node>
  <node id='-41719' lat='-33.824649' lon='151.008316'>
    <tag k='addr:housenumber' v='32' />
    <tag k='addr:street' v='Wigram Street' />
  </node>
  <node id='-41721' lat='-33.819884' lon='151.013823'>
    <tag k='addr:housenumber' v='24' />
    <tag k='addr:street' v='Ruse Street' />
  </node>
  <node id='-41723' lat='-33.821585' lon='151.009373'>
    <tag k='addr:housenumber' v='69' />
    <tag k='addr:street' v='Wigram Street' />
  </node>
  <node id='-41765' lat='-33.82013' lon='151.008746'>
    <tag k='addr:housenumber' v='10' />
    <tag k='addr:street' v='Ada Street' />
  </node>
  <node id='-41767' lat='-33.821651' lon='151.01022'>
    <tag k='addr:housenumber' v='18' />
    <tag k='addr:street' v='Albion Street' />
  </node>
  <node id='-41817' lat='-33.824523' lon='151.013126'>
    <tag k='addr:housenumber' v='136' />
    <tag k='addr:street' v='Good Street' />
  </node>
  <node id='-41819' lat='-33.819687' lon='151.012576'>
    <tag k='addr:housenumber' v='10' />
    <tag k='addr:street' v='Ruse Street' />
  </node>
  <node id='-41863' lat='-33.821937' lon='151.009686'>
    <tag k='addr:housenumber' v='3' />
    <tag k='addr:street' v='Albion Street' />
  </node>
  <node id='-41865' lat='-33.821496' lon='151.015363'>
    <tag k='addr:housenumber' v='31' />
    <tag k='addr:street' v='Alice Street' />
  </node>
  <node id='-41867' lat='-33.824393' lon='151.013144'>
    <tag k='addr:housenumber' v='138' />
    <tag k='addr:street' v='Good Street' />
  </node>
  <node id='-41869' lat='-33.821436' lon='151.010627'>
    <tag k='addr:housenumber' v='80' />
    <tag k='addr:street' v='Harris Street' />
  </node>
  <node id='-41919' lat='-33.818958' lon='151.009732'>
    <tag k='addr:housenumber' v='109A' />
    <tag k='addr:street' v='Wigram Street' />
  </node>
  <node id='-41945' lat='-33.819531' lon='151.009117'>
    <tag k='addr:housenumber' v='116' />
    <tag k='addr:street' v='Wigram Street' />
  </node>
  <node id='-41979' lat='-33.821684' lon='151.009725'>
    <tag k='addr:housenumber' v='9' />
    <tag k='addr:street' v='Albion Street' />
  </node>
  <node id='-42053' lat='-33.819879' lon='151.015979'>
    <tag k='addr:housenumber' v='6' />
    <tag k='addr:street' v='Gregory Place' />
  </node>
  <node id='-42055' lat='-33.825388' lon='151.010678'>
    <tag k='addr:housenumber' v='27' />
    <tag k='addr:street' v='Harris Street' />
  </node>
  <node id='-42057' lat='-33.82266' lon='151.008087'>
    <tag k='addr:housenumber' v='51' />
    <tag k='addr:street' v='Marion Street' />
  </node>
  <node id='-42117' lat='-33.821769' lon='151.009712'>
    <tag k='addr:housenumber' v='7' />
    <tag k='addr:street' v='Albion Street' />
  </node>
  <node id='-42119' lat='-33.820511' lon='151.01179'>
    <tag k='addr:housenumber' v='8' />
    <tag k='addr:street' v='Alice Street' />
  </node>
  <node id='-42139' lat='-33.821483' lon='151.010253'>
    <tag k='addr:housenumber' v='22' />
    <tag k='addr:street' v='Albion Street' />
  </node>
  <node id='-42141' lat='-33.819158' lon='151.016521'>
    <tag k='addr:housenumber' v='148' />
    <tag k='addr:street' v='Alfred Street' />
  </node>
  <node id='-42177' lat='-33.822731' lon='151.012378'>
    <tag k='addr:housenumber' v='10' />
    <tag k='addr:street' v='Crown Street' />
  </node>
  <node id='-42179' lat='-33.822704' lon='151.012153'>
    <tag k='addr:housenumber' v='8' />
    <tag k='addr:street' v='Crown Street' />
  </node>
  <node id='-42219' lat='-33.819968' lon='151.010859'>
    <tag k='addr:housenumber' v='110' />
    <tag k='addr:street' v='Harris Street' />
  </node>
  <node id='-42221' lat='-33.822748' lon='151.009543'>
    <tag k='addr:housenumber' v='69' />
    <tag k='addr:street' v='Marion Street' />
  </node>
  <node id='-42223' lat='-33.822168' lon='151.008736'>
    <tag k='addr:housenumber' v='48' />
    <tag k='addr:street' v='Marion Street' />
  </node>
  <node id='-42225' lat='-33.818094' lon='151.009951'>
    <tag k='addr:housenumber' v='115' />
    <tag k='addr:street' v='Wigram Street' />
  </node>
  <node id='-42227' lat='-33.822566' lon='151.015078'>
    <tag k='addr:housenumber' v='56' />
    <tag k='addr:street' v='Weston Street' />
  </node>
  <node id='-42229' lat='-33.818098' lon='151.010262'>
    <tag k='addr:housenumber' v='117A' />
    <tag k='addr:street' v='Wigram Street' />
  </node>
  <node id='-42231' lat='-33.820581' lon='151.012443'>
    <tag k='addr:housenumber' v='16' />
    <tag k='addr:street' v='Alice Street' />
  </node>
  <node id='-42273' lat='-33.822656' lon='151.011708'>
    <tag k='addr:housenumber' v='4' />
    <tag k='addr:street' v='Crown Street' />
  </node>
  <node id='-42275' lat='-33.817993' lon='151.009935'>
    <tag k='addr:housenumber' v='117' />
    <tag k='addr:street' v='Wigram Street' />
  </node>
  <node id='-42277' lat='-33.822325' lon='151.01285'>
    <tag k='addr:housenumber' v='72' />
    <tag k='addr:street' v='Weston Street' />
  </node>
  <node id='-42279' lat='-33.822242' lon='151.010137'>
    <tag k='addr:housenumber' v='4' />
    <tag k='addr:street' v='Albion Street' />
  </node>
  <node id='-42299' lat='-33.819995' lon='151.009982'>
    <tag k='addr:housenumber' v='47' />
    <tag k='addr:street' v='Albion Street' />
  </node>
  <node id='-42301' lat='-33.826571' lon='151.011556'>
    <tag k='addr:housenumber' v='24-26' />
    <tag k='addr:street' v='Bowden Street' />
  </node>
  <node id='-42321' lat='-33.81977' lon='151.015994'>
    <tag k='addr:housenumber' v='8' />
    <tag k='addr:street' v='Gregory Place' />
  </node>
  <node id='-42323' lat='-33.821521' lon='151.010615'>
    <tag k='addr:housenumber' v='78' />
    <tag k='addr:street' v='Harris Street' />
  </node>
  <node id='-42325' lat='-33.822148' lon='151.008542'>
    <tag k='addr:housenumber' v='44' />
    <tag k='addr:street' v='Marion Street' />
  </node>
  <node id='-42327' lat='-33.819763' lon='151.013062'>
    <tag k='addr:housenumber' v='16' />
    <tag k='addr:street' v='Ruse Street' />
  </node>
  <node id='-42339' lat='-33.821012' lon='151.008825'>
    <tag k='addr:housenumber' v='86' />
    <tag k='addr:street' v='Wigram Street' />
  </node>
  <node id='-42341' lat='-33.820619' lon='151.012795'>
    <tag k='addr:housenumber' v='20' />
    <tag k='addr:street' v='Alice Street' />
  </node>
  <node id='-42369' lat='-33.820638' lon='151.010381'>
    <tag k='addr:housenumber' v='36' />
    <tag k='addr:street' v='Albion Street' />
  </node>
  <node id='-42371' lat='-33.824163' lon='151.008017'>
    <tag k='addr:housenumber' v='3' />
    <tag k='addr:street' v='Cambridge Street' />
  </node>
  <node id='-42373' lat='-33.81982' lon='151.013386'>
    <tag k='addr:housenumber' v='20' />
    <tag k='addr:street' v='Ruse Street' />
  </node>
  <node id='-42397' lat='-33.821178' lon='151.009435'>
    <tag k='addr:housenumber' v='77' />
    <tag k='addr:street' v='Wigram Street' />
  </node>
  <node id='-42413' lat='-33.818553' lon='151.009901'>
    <tag k='addr:housenumber' v='16' />
    <tag k='addr:street' v='Parkes Street' />
  </node>
  <node id='-42445' lat='-33.820052' lon='151.014277'>
    <tag k='addr:housenumber' v='30A' />
    <tag k='addr:street' v='Alice Street' />
  </node>
  <node id='-42473' lat='-33.819929' lon='151.016407'>
    <tag k='addr:housenumber' v='134' />
    <tag k='addr:street' v='Alfred Street' />
  </node>
  <node id='-42489' lat='-33.819981' lon='151.011515'>
    <tag k='addr:housenumber' v='85' />
    <tag k='addr:street' v='Harris Street' />
  </node>
  <node id='-42491' lat='-33.820286' lon='151.013172'>
    <tag k='addr:housenumber' v='17' />
    <tag k='addr:street' v='Ruse Street' />
  </node>
  <node id='-42493' lat='-33.82169' lon='151.008765'>
    <tag k='addr:housenumber' v='70' />
    <tag k='addr:street' v='Wigram Street' />
  </node>
  <node id='-42495' lat='-33.820092' lon='151.008476'>
    <tag k='addr:housenumber' v='2' />
    <tag k='addr:street' v='Ada Street' />
  </node>
  <node id='-42497' lat='-33.822021' lon='151.009673'>
    <tag k='addr:housenumber' v='1' />
    <tag k='addr:street' v='Albion Street' />
  </node>
  <node id='-42499' lat='-33.820915' lon='151.015846'>
    <tag k='addr:housenumber' v='56' />
    <tag k='addr:street' v='Alice Street' />
  </node>
  <node id='-42501' lat='-33.826352' lon='151.010402'>
    <tag k='addr:housenumber' v='38' />
    <tag k='addr:street' v='Bowden Street' />
  </node>
  <node id='-42503' lat='-33.820585' lon='151.009892'>
    <tag k='addr:housenumber' v='33' />
    <tag k='addr:street' v='Albion Street' />
  </node>
  <node id='-42505' lat='-33.825184' lon='151.009997'>
    <tag k='addr:housenumber' v='30' />
    <tag k='addr:street' v='Harris Street' />
  </node>
  <node id='-42507' action='modify' lat='-33.82269' lon='151.00912262624'>
    <tag k='addr:housenumber' v='61' />
    <tag k='addr:street' v='Marion Street' />
  </node>
  <node id='-42509' action='modify' lat='-33.82267444072' lon='151.00909018688'>
    <tag k='addr:housenumber' v='1/61' />
    <tag k='addr:street' v='Marion Street' />
  </node>
  <node id='-42511' action='modify' lat='-33.82270555928' lon='151.00909018688'>
    <tag k='addr:housenumber' v='2/61' />
    <tag k='addr:street' v='Marion Street' />
  </node>
  <node id='-42513' lat='-33.822112' lon='151.010524'>
    <tag k='addr:housenumber' v='64' />
    <tag k='addr:street' v='Harris Street' />
  </node>
  <node id='-42515' action='modify' lat='-33.819091' lon='151.01023762533'>
    <tag k='addr:housenumber' v='15' />
    <tag k='addr:street' v='Parkes Street' />
  </node>
  <node id='-42517' action='modify' lat='-33.81907544072' lon='151.01020518733'>
    <tag k='addr:housenumber' v='1/15' />
    <tag k='addr:street' v='Parkes Street' />
  </node>
  <node id='-42519' action='modify' lat='-33.81910655928' lon='151.01020518733'>
    <tag k='addr:housenumber' v='2/15' />
    <tag k='addr:street' v='Parkes Street' />
  </node>
  <node id='-42549' lat='-33.819815' lon='151.016422'>
    <tag k='addr:housenumber' v='136' />
    <tag k='addr:street' v='Alfred Street' />
  </node>
  <node id='-42565' lat='-33.819596' lon='151.016456'>
    <tag k='addr:housenumber' v='140' />
    <tag k='addr:street' v='Alfred Street' />
  </node>
  <node id='-42587' lat='-33.819335' lon='151.01606'>
    <tag k='addr:housenumber' v='16' />
    <tag k='addr:street' v='Gregory Place' />
  </node>
  <node id='-42589' lat='-33.822703' lon='151.011102'>
    <tag k='addr:housenumber' v='55' />
    <tag k='addr:street' v='Harris Street' />
  </node>
  <node id='-42591' lat='-33.823808' lon='151.013147'>
    <tag k='addr:housenumber' v='142' />
    <tag k='addr:street' v='Good Street' />
  </node>
  <node id='-42593' lat='-33.820251' lon='151.01285'>
    <tag k='addr:housenumber' v='13' />
    <tag k='addr:street' v='Ruse Street' />
  </node>
  <node id='-42595' lat='-33.821393' lon='151.009403'>
    <tag k='addr:housenumber' v='73A' />
    <tag k='addr:street' v='Wigram Street' />
  </node>
  <node id='-42597' lat='-33.818728' lon='151.009175'>
    <tag k='addr:housenumber' v='120A' />
    <tag k='addr:street' v='Wigram Street' />
  </node>
  <node id='-42599' lat='-33.821512' lon='151.016146'>
    <tag k='addr:housenumber' v='39' />
    <tag k='addr:street' v='Alice Street' />
  </node>
  <node id='-42601' lat='-33.820925' lon='151.009841'>
    <tag k='addr:housenumber' v='25' />
    <tag k='addr:street' v='Albion Street' />
  </node>
  <node id='-42603' lat='-33.822753' lon='151.012584'>
    <tag k='addr:housenumber' v='12' />
    <tag k='addr:street' v='Crown Street' />
  </node>
  <node id='-42637' lat='-33.820844' lon='151.010721'>
    <tag k='addr:housenumber' v='94' />
    <tag k='addr:street' v='Harris Street' />
  </node>
  <node id='-42639' lat='-33.819712' lon='151.012738'>
    <tag k='addr:housenumber' v='12' />
    <tag k='addr:street' v='Ruse Street' />
  </node>
  <node id='-42641' lat='-33.822159' lon='151.008637'>
    <tag k='addr:housenumber' v='46' />
    <tag k='addr:street' v='Marion Street' />
  </node>
  <node id='-42643' lat='-33.821941' lon='151.009319'>
    <tag k='addr:housenumber' v='63' />
    <tag k='addr:street' v='Wigram Street' />
  </node>
  <node id='-42645' lat='-33.821579' lon='151.011891'>
    <tag k='addr:housenumber' v='85' />
    <tag k='addr:street' v='Weston Street' />
  </node>
  <node id='-42669' lat='-33.826635' lon='151.009781'>
    <tag k='addr:housenumber' v='10' />
    <tag k='addr:street' v='Harris Street' />
  </node>
  <node id='-42671' lat='-33.823372' lon='151.008337'>
    <tag k='addr:housenumber' v='46' />
    <tag k='addr:street' v='Wigram Street' />
  </node>
  <node id='-42681' lat='-33.819997' lon='151.009614'>
    <tag k='addr:housenumber' v='101' />
    <tag k='addr:street' v='Wigram Street' />
  </node>
  <node id='-42683' lat='-33.821302' lon='151.013556'>
    <tag k='addr:housenumber' v='150' />
    <tag k='addr:street' v='Good Street' />
  </node>
  <node id='-42685' lat='-33.821292' lon='151.009418'>
    <tag k='addr:housenumber' v='75' />
    <tag k='addr:street' v='Wigram Street' />
  </node>
  <node id='-42687' lat='-33.8233' lon='151.011723'>
    <tag k='addr:housenumber' v='7' />
    <tag k='addr:street' v='Crown Street' />
  </node>
  <node id='-42729' lat='-33.82209' lon='151.00827'>
    <tag k='addr:housenumber' v='8' />
    <tag k='addr:street' v='Station Street East' />
  </node>
  <node id='-42731' lat='-33.820753' lon='151.009867'>
    <tag k='addr:housenumber' v='29' />
    <tag k='addr:street' v='Albion Street' />
  </node>
  <node id='-42733' lat='-33.820962' lon='151.011304'>
    <tag k='addr:housenumber' v='77' />
    <tag k='addr:street' v='Harris Street' />
  </node>
  <node id='-42735' lat='-33.82061' lon='151.012711'>
    <tag k='addr:housenumber' v='20A' />
    <tag k='addr:street' v='Alice Street' />
  </node>
  <node id='-42737' lat='-33.821109' lon='151.009813'>
    <tag k='addr:housenumber' v='21' />
    <tag k='addr:street' v='Albion Street' />
  </node>
  <node id='-42739' lat='-33.822237' lon='151.009706'>
    <tag k='addr:housenumber' v='56' />
    <tag k='addr:street' v='Marion Street' />
  </node>
  <node id='-42741' lat='-33.821743' lon='151.016139'>
    <tag k='addr:housenumber' v='128' />
    <tag k='addr:street' v='Alfred Street' />
  </node>
  <node id='-42743' lat='-33.820486' lon='151.00845'>
    <tag k='addr:housenumber' v='7' />
    <tag k='addr:street' v='Ada Street' />
  </node>
  <node id='-42759' lat='-33.821355' lon='151.010272'>
    <tag k='addr:housenumber' v='24' />
    <tag k='addr:street' v='Albion Street' />
  </node>
  <node id='-42761' lat='-33.8222' lon='151.008258'>
    <tag k='addr:housenumber' v='2' />
    <tag k='addr:street' v='Station Street East' />
  </node>
  <node id='-42763' lat='-33.819965' lon='151.008433'>
    <tag k='addr:housenumber' v='2A' />
    <tag k='addr:street' v='Ada Street' />
  </node>
  <node id='-42765' lat='-33.8212' lon='151.008329'>
    <tag k='addr:housenumber' v='32-34' />
    <tag k='addr:street' v='Station Street East' />
  </node>
  <node id='-42767' lat='-33.825896' lon='151.00989'>
    <tag k='addr:housenumber' v='18' />
    <tag k='addr:street' v='Harris Street' />
  </node>
  <node id='-42769' lat='-33.822864' lon='151.013429'>
    <tag k='addr:housenumber' v='22' />
    <tag k='addr:street' v='Crown Street' />
  </node>
  <node id='-42771' action='modify' lat='-33.822694' lon='151.00824662624'>
    <tag k='addr:housenumber' v='53' />
    <tag k='addr:street' v='Marion Street' />
  </node>
  <node id='-42773' action='modify' lat='-33.82267844072' lon='151.00821418688'>
    <tag k='addr:housenumber' v='53A' />
    <tag k='addr:street' v='Marion Street' />
  </node>
  <node id='-42775' action='modify' lat='-33.82270955928' lon='151.00821418688'>
    <tag k='addr:housenumber' v='53B' />
    <tag k='addr:street' v='Marion Street' />
  </node>
  <node id='-42777' lat='-33.821452' lon='151.013534'>
    <tag k='addr:housenumber' v='148' />
    <tag k='addr:street' v='Good Street' />
  </node>
  <node id='-42779' lat='-33.821348' lon='151.008348'>
    <tag k='addr:housenumber' v='28' />
    <tag k='addr:street' v='Station Street East' />
  </node>
  <node id='-42781' lat='-33.827281' lon='151.008263'>
    <tag k='addr:housenumber' v='2B' />
    <tag k='addr:street' v='Dalley Street' />
  </node>
  <node id='-42799' lat='-33.821098' lon='151.008817'>
    <tag k='addr:housenumber' v='84' />
    <tag k='addr:street' v='Wigram Street' />
  </node>
  <node id='-42801' lat='-33.823713' lon='151.011326'>
    <tag k='addr:housenumber' v='17' />
    <tag k='addr:street' v='Brisbane Street' />
  </node>
  <node id='-42803' lat='-33.823474' lon='151.011197'>
    <tag k='addr:housenumber' v='17A' />
    <tag k='addr:street' v='Brisbane Street' />
  </node>
  <node id='-42825' action='modify' lat='-33.820035' lon='151.01049462557'>
    <tag k='addr:housenumber' v='50' />
    <tag k='addr:street' v='Albion Street' />
  </node>
  <node id='-42827' action='modify' lat='-33.820035' lon='151.01045137443'>
    <tag k='addr:housenumber' v='48' />
    <tag k='addr:street' v='Albion Street' />
  </node>
  <node id='-42829' action='modify' lat='-33.82203' lon='151.01018362608'>
    <tag k='addr:housenumber' v='10' />
    <tag k='addr:street' v='Albion Street' />
  </node>
  <node id='-42831' action='modify' lat='-33.82203' lon='151.01014037392'>
    <tag k='addr:housenumber' v='8' />
    <tag k='addr:street' v='Albion Street' />
  </node>
  <node id='-42833' action='modify' lat='-33.819264' lon='151.01259062538'>
    <tag k='addr:housenumber' v='101' />
    <tag k='addr:street' v='Harris Street' />
  </node>
  <node id='-42835' action='modify' lat='-33.825514' lon='151.00996962696'>
    <tag k='addr:housenumber' v='26' />
    <tag k='addr:street' v='Harris Street' />
  </node>
  <node id='-42837' action='modify' lat='-33.825514' lon='151.00992637304'>
    <tag k='addr:housenumber' v='24' />
    <tag k='addr:street' v='Harris Street' />
  </node>
  <node id='-42839' action='modify' lat='-33.819264' lon='151.01254737462'>
    <tag k='addr:housenumber' v='25' />
    <tag k='addr:street' v='Parkes Street' />
  </node>
  <node id='-42841' action='modify' lat='-33.824516' lon='151.0090056267'>
    <tag k='addr:housenumber' v='33-35' />
    <tag k='addr:street' v='Wigram Street' />
  </node>
  <node id='-42843' action='modify' lat='-33.82450044072' lon='151.00897318665'>
    <tag k='addr:housenumber' v='35' />
    <tag k='addr:street' v='Wigram Street' />
  </node>
  <node id='-42845' action='modify' lat='-33.82453155928' lon='151.00897318665'>
    <tag k='addr:housenumber' v='33' />
    <tag k='addr:street' v='Wigram Street' />
  </node>
  <node id='-42847' lat='-33.822782' lon='151.008619'>
    <tag k='addr:housenumber' v='56A' />
    <tag k='addr:street' v='Wigram Street' />
  </node>
  <node id='-42849' lat='-33.825455' lon='151.011017'>
    <tag k='addr:housenumber' v='20' />
    <tag k='addr:street' v='Allen Street' />
  </node>
  <node id='-42851' lat='-33.821831' lon='151.013588'>
    <tag k='addr:housenumber' v='69' />
    <tag k='addr:street' v='Weston Street' />
  </node>
  <node id='-42853' lat='-33.821605' lon='151.013623'>
    <tag k='addr:housenumber' v='146' />
    <tag k='addr:street' v='Good Street' />
  </node>
  <node id='-42869' lat='-33.821507' lon='151.014509'>
    <tag k='addr:housenumber' v='23' />
    <tag k='addr:street' v='Alice Street' />
  </node>
  <node id='-42871' lat='-33.818949' lon='151.009114'>
    <tag k='addr:housenumber' v='28' />
    <tag k='addr:street' v='Kendall Street' />
  </node>
  <node id='-42873' lat='-33.819113' lon='151.011763'>
    <tag k='addr:housenumber' v='97' />
    <tag k='addr:street' v='Harris Street' />
  </node>
  <node id='-42875' lat='-33.82191' lon='151.008759'>
    <tag k='addr:housenumber' v='62-64' />
    <tag k='addr:street' v='Wigram Street' />
  </node>
  <node id='-42947' lat='-33.826557' lon='151.011009'>
    <tag k='addr:housenumber' v='30-34' />
    <tag k='addr:street' v='Bowden Street' />
  </node>
  <node id='-42949' lat='-33.820223' lon='151.012597'>
    <tag k='addr:housenumber' v='9' />
    <tag k='addr:street' v='Ruse Street' />
  </node>
  <node id='-42951' lat='-33.820222' lon='151.012587'>
    <tag k='addr:housenumber' v='9A' />
    <tag k='addr:street' v='Ruse Street' />
  </node>
  <node id='-42967' lat='-33.824475' lon='151.012744'>
    <tag k='addr:housenumber' v='2' />
    <tag k='addr:street' v='Brisbane Street' />
  </node>
  <node id='-43033' lat='-33.820512' lon='151.015254'>
    <tag k='addr:housenumber' v='40-46' />
    <tag k='addr:street' v='Alice Street' />
  </node>
  <node id='-43089' lat='-33.821815' lon='151.01403'>
    <tag k='addr:housenumber' v='67' />
    <tag k='addr:street' v='Weston Street' />
  </node>
  <node id='-43091' lat='-33.8236' lon='151.009686'>
    <tag k='addr:housenumber' v='43A' />
    <tag k='addr:street' v='Wigram Street' />
  </node>
  <node id='-43147' lat='-33.822765' lon='151.009704'>
    <tag k='addr:housenumber' v='71-73' />
    <tag k='addr:street' v='Marion Street' />
  </node>
  <node id='-43211' lat='-33.820337' lon='151.010795'>
    <tag k='addr:housenumber' v='104' />
    <tag k='addr:street' v='Harris Street' />
  </node>
  <node id='-43213' lat='-33.818662' lon='151.010911'>
    <tag k='addr:housenumber' v='26-28' />
    <tag k='addr:street' v='Parkes Street' />
  </node>
  <node id='-43359' lat='-33.827207' lon='151.011014'>
    <tag k='addr:housenumber' v='34R' />
    <tag k='addr:street' v='Albert Street' />
  </node>
  <node id='-43373' lat='-33.821042' lon='151.008333'>
    <tag k='addr:housenumber' v='38' />
    <tag k='addr:street' v='Station Street East' />
  </node>
  <node id='-43375' lat='-33.820494' lon='151.008543'>
    <tag k='addr:housenumber' v='9' />
    <tag k='addr:street' v='Ada Street' />
  </node>
  <node id='-43401' lat='-33.820504' lon='151.008676'>
    <tag k='addr:housenumber' v='11' />
    <tag k='addr:street' v='Ada Street' />
  </node>
  <node id='-43403' lat='-33.820917' lon='151.008317'>
    <tag k='addr:housenumber' v='42' />
    <tag k='addr:street' v='Station Street East' />
  </node>
  <node id='-43405' lat='-33.820854' lon='151.008316'>
    <tag k='addr:housenumber' v='44' />
    <tag k='addr:street' v='Station Street East' />
  </node>
  <node id='-43407' action='modify' lat='-33.824511' lon='151.0095906267'>
    <tag k='addr:housenumber' v='33' />
    <tag k='addr:street' v='Allen Street' />
  </node>
  <node id='-43409' action='modify' lat='-33.824511' lon='151.0095473733'>
    <tag k='addr:housenumber' v='37' />
    <tag k='addr:street' v='Wigram Street' />
  </node>
  <node id='-43549' lat='-33.820911' lon='151.008832'>
    <tag k='addr:housenumber' v='90' />
    <tag k='addr:street' v='Wigram Street' />
  </node>
  <node id='-43551' lat='-33.823405' lon='151.012693'>
    <tag k='addr:housenumber' v='13' />
    <tag k='addr:street' v='Crown Street' />
  </node>
  <node id='-43553' lat='-33.823382' lon='151.012474'>
    <tag k='addr:housenumber' v='11' />
    <tag k='addr:street' v='Crown Street' />
  </node>
  <node id='-43555' lat='-33.823357' lon='151.012258'>
    <tag k='addr:housenumber' v='11' />
    <tag k='addr:street' v='Crown Street' />
  </node>
  <node id='-43557' lat='-33.821884' lon='151.014688'>
    <tag k='addr:housenumber' v='63' />
    <tag k='addr:street' v='Weston Street' />
  </node>
  <node id='-43559' lat='-33.825276' lon='151.010885'>
    <tag k='addr:housenumber' v='24' />
    <tag k='addr:street' v='Allen Street' />
  </node>
  <node id='-43683' lat='-33.82211' lon='151.009293'>
    <tag k='addr:housenumber' v='61' />
    <tag k='addr:street' v='Wigram Street' />
  </node>
  <node id='-43793' lat='-33.821009' lon='151.009828'>
    <tag k='addr:housenumber' v='23' />
    <tag k='addr:street' v='Albion Street' />
  </node>
  <node id='-43817' lat='-33.824397' lon='151.010832'>
    <tag k='addr:housenumber' v='39' />
    <tag k='addr:street' v='Harris Street' />
  </node>
  <node id='-43819' lat='-33.821689' lon='151.010589'>
    <tag k='addr:housenumber' v='74' />
    <tag k='addr:street' v='Harris Street' />
  </node>
  <node id='-43821' lat='-33.821854' lon='151.009699'>
    <tag k='addr:housenumber' v='5' />
    <tag k='addr:street' v='Albion Street' />
  </node>
  <node id='-43867' lat='-33.826586' lon='151.011718'>
    <tag k='addr:housenumber' v='22' />
    <tag k='addr:street' v='Bowden Street' />
  </node>
  <node id='-43911' lat='-33.821804' lon='151.008758'>
    <tag k='addr:housenumber' v='66' />
    <tag k='addr:street' v='Wigram Street' />
  </node>
  <node id='-43939' action='modify' lat='-33.821712' lon='151.00937562599'>
    <tag k='addr:housenumber' v='65A' />
    <tag k='addr:street' v='Wigram Street' />
  </node>
  <node id='-43941' action='modify' lat='-33.82169644072' lon='151.009343187'>
    <tag k='addr:housenumber' v='67' />
    <tag k='addr:street' v='Wigram Street' />
  </node>
  <node id='-43943' action='modify' lat='-33.82172755928' lon='151.009343187'>
    <tag k='addr:housenumber' v='67A' />
    <tag k='addr:street' v='Wigram Street' />
  </node>
  <node id='-43945' lat='-33.820668' lon='151.009879'>
    <tag k='addr:housenumber' v='31' />
    <tag k='addr:street' v='Albion Street' />
  </node>
  <node id='-43947' action='modify' lat='-33.819268' lon='151.01652562538'>
    <tag k='addr:housenumber' v='146' />
    <tag k='addr:street' v='Alfred Street' />
  </node>
  <node id='-43949' action='modify' lat='-33.819268' lon='151.01648237462'>
    <tag k='addr:housenumber' v='146A' />
    <tag k='addr:street' v='Alfred Street' />
  </node>
  <node id='-43951' lat='-33.826277' lon='151.009006'>
    <tag k='addr:housenumber' v='40' />
    <tag k='addr:street' v='Bowden Street' />
  </node>
  <node id='-43987' lat='-33.820875' lon='151.011289'>
    <tag k='addr:housenumber' v='79' />
    <tag k='addr:street' v='Harris Street' />
  </node>
  <node id='-43989' lat='-33.821334' lon='151.009778'>
    <tag k='addr:housenumber' v='17' />
    <tag k='addr:street' v='Albion Street' />
  </node>
  <node id='-43991' lat='-33.82095' lon='151.011567'>
    <tag k='addr:housenumber' v='1' />
    <tag k='addr:street' v='Alice Street' />
  </node>
  <node id='-44025' lat='-33.820304' lon='151.013336'>
    <tag k='addr:housenumber' v='19' />
    <tag k='addr:street' v='Ruse Street' />
  </node>
  <node id='-44027' lat='-33.822012' lon='151.008281'>
    <tag k='addr:housenumber' v='12' />
    <tag k='addr:street' v='Station Street East' />
  </node>
  <node id='-44029' lat='-33.818578' lon='151.009287'>
    <tag k='addr:housenumber' v='12A' />
    <tag k='addr:street' v='Parkes Street' />
  </node>
  <node id='-44031' lat='-33.821515' lon='151.00975'>
    <tag k='addr:housenumber' v='13' />
    <tag k='addr:street' v='Albion Street' />
  </node>
  <node id='-44033' lat='-33.819918' lon='151.009999'>
    <tag k='addr:housenumber' v='49' />
    <tag k='addr:street' v='Albion Street' />
  </node>
  <node id='-44035' lat='-33.821182' lon='151.010666'>
    <tag k='addr:housenumber' v='86' />
    <tag k='addr:street' v='Harris Street' />
  </node>
  <node id='-44067' lat='-33.820631' lon='151.009519'>
    <tag k='addr:housenumber' v='89' />
    <tag k='addr:street' v='Wigram Street' />
  </node>
  <node id='-44069' lat='-33.820801' lon='151.009492'>
    <tag k='addr:housenumber' v='85' />
    <tag k='addr:street' v='Wigram Street' />
  </node>
  <node id='-44071' lat='-33.821599' lon='151.009738'>
    <tag k='addr:housenumber' v='11' />
    <tag k='addr:street' v='Albion Street' />
  </node>
  <node id='-44073' lat='-33.820163' lon='151.009956'>
    <tag k='addr:housenumber' v='43' />
    <tag k='addr:street' v='Albion Street' />
  </node>
  <node id='-44075' lat='-33.825097' lon='151.012934'>
    <tag k='addr:housenumber' v='126-128' />
    <tag k='addr:street' v='Good Street' />
  </node>
  <node id='-44103' lat='-33.820247' lon='151.009943'>
    <tag k='addr:housenumber' v='41' />
    <tag k='addr:street' v='Albion Street' />
  </node>
  <node id='-44105' action='modify' lat='-33.822801' lon='151.01021262627'>
    <tag k='addr:housenumber' v='81' />
    <tag k='addr:street' v='Marion Street' />
  </node>
  <node id='-44107' action='modify' lat='-33.82278544072' lon='151.01018018686'>
    <tag k='addr:housenumber' v='1/81' />
    <tag k='addr:street' v='Marion Street' />
  </node>
  <node id='-44109' action='modify' lat='-33.82281655928' lon='151.01018018686'>
    <tag k='addr:housenumber' v='2/81' />
    <tag k='addr:street' v='Marion Street' />
  </node>
  <node id='-44111' lat='-33.81961' lon='151.012089'>
    <tag k='addr:housenumber' v='4' />
    <tag k='addr:street' v='Ruse Street' />
  </node>
  <node id='-44139' lat='-33.819635' lon='151.012252'>
    <tag k='addr:housenumber' v='6' />
    <tag k='addr:street' v='Ruse Street' />
  </node>
  <node id='-44141' lat='-33.822078' lon='151.011022'>
    <tag k='addr:housenumber' v='86' />
    <tag k='addr:street' v='Weston Street' />
  </node>
  <node id='-44161' action='modify' lat='-33.822699' lon='151.00870662624'>
    <tag k='addr:housenumber' v='58' />
    <tag k='addr:street' v='Wigram Street' />
  </node>
  <node id='-44163' action='modify' lat='-33.822699' lon='151.00866337376'>
    <tag k='addr:housenumber' v='1/58' />
    <tag k='addr:street' v='Wigram Street' />
  </node>
  <node id='-44199' lat='-33.821039' lon='151.010321'>
    <tag k='addr:housenumber' v='30' />
    <tag k='addr:street' v='Albion Street' />
  </node>
  <node id='-44201' lat='-33.820049' lon='151.01639'>
    <tag k='addr:housenumber' v='132' />
    <tag k='addr:street' v='Alfred Street' />
  </node>
  <node id='-44233' lat='-33.820122' lon='151.008698'>
    <tag k='addr:housenumber' v='8' />
    <tag k='addr:street' v='Ada Street' />
  </node>
  <node id='-44235' lat='-33.8205' lon='151.009905'>
    <tag k='addr:housenumber' v='35' />
    <tag k='addr:street' v='Albion Street' />
  </node>
  <node id='-44237' lat='-33.820897' lon='151.015683'>
    <tag k='addr:housenumber' v='54' />
    <tag k='addr:street' v='Alice Street' />
  </node>
  <node id='-44253' lat='-33.822679' lon='151.011924'>
    <tag k='addr:housenumber' v='6' />
    <tag k='addr:street' v='Crown Street' />
  </node>
  <node id='-44255' lat='-33.819552' lon='151.016028'>
    <tag k='addr:housenumber' v='12' />
    <tag k='addr:street' v='Gregory Place' />
  </node>
  <node id='-44257' lat='-33.821605' lon='151.010607'>
    <tag k='addr:housenumber' v='76' />
    <tag k='addr:street' v='Harris Street' />
  </node>
</osm>
