<?xml version='1.0' encoding='UTF-8'?>
<osm version='0.6' generator='JOSM'>
  <node id='-281901' action='modify' visible='true' lat='-34.50545566915' lon='150.40702500892'>
    <tag k='addr:housenumber' v='137/2' />
    <tag k='addr:street' v='Charlotte Street' />
  </node>
  <node id='-281902' action='modify' visible='true' lat='-34.50545566915' lon='150.40702500892'>
    <tag k='addr:housenumber' v='138/2' />
    <tag k='addr:street' v='Charlotte Street' />
  </node>
  <node id='-281903' action='modify' visible='true' lat='-34.50545566915' lon='150.40702500892'>
    <tag k='addr:housenumber' v='135/2' />
    <tag k='addr:street' v='Charlotte Street' />
  </node>
  <node id='-281904' action='modify' visible='true' lat='-34.50545566915' lon='150.40702500892'>
    <tag k='addr:housenumber' v='136/2' />
    <tag k='addr:street' v='Charlotte Street' />
  </node>
  <node id='-281905' action='modify' visible='true' lat='-34.50545566915' lon='150.40702500892'>
    <tag k='addr:housenumber' v='141/2' />
    <tag k='addr:street' v='Charlotte Street' />
  </node>
  <node id='-281906' action='modify' visible='true' lat='-34.50545566915' lon='150.40702500892'>
    <tag k='addr:housenumber' v='142/2' />
    <tag k='addr:street' v='Charlotte Street' />
  </node>
  <node id='-281907' action='modify' visible='true' lat='-34.50545566915' lon='150.40702500892'>
    <tag k='addr:housenumber' v='139/2' />
    <tag k='addr:street' v='Charlotte Street' />
  </node>
  <node id='-281908' action='modify' visible='true' lat='-34.50545566915' lon='150.40702500892'>
    <tag k='addr:housenumber' v='140/2' />
    <tag k='addr:street' v='Charlotte Street' />
  </node>
  <node id='-281909' action='modify' visible='true' lat='-34.50545566915' lon='150.40702500892'>
    <tag k='addr:housenumber' v='145/2' />
    <tag k='addr:street' v='Charlotte Street' />
  </node>
  <node id='-281910' action='modify' visible='true' lat='-34.50545566915' lon='150.40702500892'>
    <tag k='addr:housenumber' v='146/2' />
    <tag k='addr:street' v='Charlotte Street' />
  </node>
  <node id='-281911' action='modify' visible='true' lat='-34.50545566915' lon='150.40702500892'>
    <tag k='addr:housenumber' v='143/2' />
    <tag k='addr:street' v='Charlotte Street' />
  </node>
  <node id='-281912' action='modify' visible='true' lat='-34.50545566915' lon='150.40702500892'>
    <tag k='addr:housenumber' v='144/2' />
    <tag k='addr:street' v='Charlotte Street' />
  </node>
  <node id='-281913' action='modify' visible='true' lat='-34.50545566915' lon='150.40702500892'>
    <tag k='addr:housenumber' v='156/2' />
    <tag k='addr:street' v='Charlotte Street' />
  </node>
  <node id='-281914' action='modify' visible='true' lat='-34.50545566915' lon='150.40702500892'>
    <tag k='addr:housenumber' v='157/2' />
    <tag k='addr:street' v='Charlotte Street' />
  </node>
  <node id='-281915' action='modify' visible='true' lat='-34.50545566915' lon='150.40702500892'>
    <tag k='addr:housenumber' v='147/2' />
    <tag k='addr:street' v='Charlotte Street' />
  </node>
  <node id='-281916' action='modify' visible='true' lat='-34.50545566915' lon='150.40702500892'>
    <tag k='addr:housenumber' v='155/2' />
    <tag k='addr:street' v='Charlotte Street' />
  </node>
  <node id='-281917' action='modify' visible='true' lat='-34.50545566915' lon='150.40702500892'>
    <tag k='addr:housenumber' v='160/2' />
    <tag k='addr:street' v='Charlotte Street' />
  </node>
  <node id='-281918' action='modify' visible='true' lat='-34.50545566915' lon='150.40702500892'>
    <tag k='addr:housenumber' v='161/2' />
    <tag k='addr:street' v='Charlotte Street' />
  </node>
  <node id='-281919' action='modify' visible='true' lat='-34.50545566915' lon='150.40702500892'>
    <tag k='addr:housenumber' v='158/2' />
    <tag k='addr:street' v='Charlotte Street' />
  </node>
  <node id='-281920' action='modify' visible='true' lat='-34.50545566915' lon='150.40702500892'>
    <tag k='addr:housenumber' v='159/2' />
    <tag k='addr:street' v='Charlotte Street' />
  </node>
  <node id='-281921' action='modify' visible='true' lat='-34.50545566915' lon='150.40702500892'>
    <tag k='addr:housenumber' v='165/2' />
    <tag k='addr:street' v='Charlotte Street' />
  </node>
  <node id='-281922' action='modify' visible='true' lat='-34.50545566915' lon='150.40702500892'>
    <tag k='addr:housenumber' v='166/2' />
    <tag k='addr:street' v='Charlotte Street' />
  </node>
  <node id='-281923' action='modify' visible='true' lat='-34.50545566915' lon='150.40702500892'>
    <tag k='addr:housenumber' v='162/2' />
    <tag k='addr:street' v='Charlotte Street' />
  </node>
  <node id='-281924' action='modify' visible='true' lat='-34.50545566915' lon='150.40702500892'>
    <tag k='addr:housenumber' v='163/2' />
    <tag k='addr:street' v='Charlotte Street' />
  </node>
  <node id='-281925' action='modify' visible='true' lat='-34.50545566915' lon='150.40702500892'>
    <tag k='addr:housenumber' v='170/2' />
    <tag k='addr:street' v='Charlotte Street' />
  </node>
  <node id='-281926' action='modify' visible='true' lat='-34.50545566915' lon='150.40702500892'>
    <tag k='addr:housenumber' v='171/2' />
    <tag k='addr:street' v='Charlotte Street' />
  </node>
  <node id='-281927' action='modify' visible='true' lat='-34.50545566915' lon='150.40702500892'>
    <tag k='addr:housenumber' v='167/2' />
    <tag k='addr:street' v='Charlotte Street' />
  </node>
  <node id='-281928' action='modify' visible='true' lat='-34.50545566915' lon='150.40702500892'>
    <tag k='addr:housenumber' v='168/2' />
    <tag k='addr:street' v='Charlotte Street' />
  </node>
  <node id='-281929' action='modify' visible='true' lat='-34.50545566915' lon='150.40702500892'>
    <tag k='addr:housenumber' v='174/2' />
    <tag k='addr:street' v='Charlotte Street' />
  </node>
  <node id='-281930' action='modify' visible='true' lat='-34.50545566915' lon='150.40702500892'>
    <tag k='addr:housenumber' v='175/2' />
    <tag k='addr:street' v='Charlotte Street' />
  </node>
  <node id='-281931' action='modify' visible='true' lat='-34.50545566915' lon='150.40702500892'>
    <tag k='addr:housenumber' v='172/2' />
    <tag k='addr:street' v='Charlotte Street' />
  </node>
  <node id='-281932' action='modify' visible='true' lat='-34.50545566915' lon='150.40702500892'>
    <tag k='addr:housenumber' v='173/2' />
    <tag k='addr:street' v='Charlotte Street' />
  </node>
  <node id='-281933' action='modify' visible='true' lat='-34.50545566915' lon='150.40702500892'>
    <tag k='addr:housenumber' v='178/2' />
    <tag k='addr:street' v='Charlotte Street' />
  </node>
  <node id='-281934' action='modify' visible='true' lat='-34.50545566915' lon='150.40702500892'>
    <tag k='addr:housenumber' v='179/2' />
    <tag k='addr:street' v='Charlotte Street' />
  </node>
  <node id='-281935' action='modify' visible='true' lat='-34.50545566915' lon='150.40702500892'>
    <tag k='addr:housenumber' v='176/2' />
    <tag k='addr:street' v='Charlotte Street' />
  </node>
  <node id='-281936' action='modify' visible='true' lat='-34.50545566915' lon='150.40702500892'>
    <tag k='addr:housenumber' v='177/2' />
    <tag k='addr:street' v='Charlotte Street' />
  </node>
  <node id='-281937' action='modify' visible='true' lat='-34.50545566915' lon='150.40702500892'>
    <tag k='addr:housenumber' v='164/2' />
    <tag k='addr:street' v='Charlotte Street' />
  </node>
  <node id='-281938' action='modify' visible='true' lat='-34.50545566915' lon='150.40702500892'>
    <tag k='addr:housenumber' v='182/2' />
    <tag k='addr:street' v='Charlotte Street' />
  </node>
  <node id='-281939' action='modify' visible='true' lat='-34.50545566915' lon='150.40702500892'>
    <tag k='addr:housenumber' v='180/2' />
    <tag k='addr:street' v='Charlotte Street' />
  </node>
  <node id='-281940' action='modify' visible='true' lat='-34.50545566915' lon='150.40702500892'>
    <tag k='addr:housenumber' v='181/2' />
    <tag k='addr:street' v='Charlotte Street' />
  </node>
  <node id='-281941' action='modify' visible='true' lat='-34.50545566915' lon='150.40702500892'>
    <tag k='addr:housenumber' v='185/2' />
    <tag k='addr:street' v='Charlotte Street' />
  </node>
  <node id='-281942' action='modify' visible='true' lat='-34.50545566915' lon='150.40702500892'>
    <tag k='addr:housenumber' v='186/2' />
    <tag k='addr:street' v='Charlotte Street' />
  </node>
  <node id='-281943' action='modify' visible='true' lat='-34.50545566915' lon='150.40702500892'>
    <tag k='addr:housenumber' v='183/2' />
    <tag k='addr:street' v='Charlotte Street' />
  </node>
  <node id='-281944' action='modify' visible='true' lat='-34.50545566915' lon='150.40702500892'>
    <tag k='addr:housenumber' v='184/2' />
    <tag k='addr:street' v='Charlotte Street' />
  </node>
  <node id='-281945' action='modify' visible='true' lat='-34.50545566915' lon='150.40702500892'>
    <tag k='addr:housenumber' v='189/2' />
    <tag k='addr:street' v='Charlotte Street' />
  </node>
  <node id='-281946' action='modify' visible='true' lat='-34.50545566915' lon='150.40702500892'>
    <tag k='addr:housenumber' v='148/2' />
    <tag k='addr:street' v='Charlotte Street' />
  </node>
  <node id='-281947' action='modify' visible='true' lat='-34.50545566915' lon='150.40702500892'>
    <tag k='addr:housenumber' v='187/2' />
    <tag k='addr:street' v='Charlotte Street' />
  </node>
  <node id='-281948' action='modify' visible='true' lat='-34.50545566915' lon='150.40702500892'>
    <tag k='addr:housenumber' v='188/2' />
    <tag k='addr:street' v='Charlotte Street' />
  </node>
  <node id='-281949' action='modify' visible='true' lat='-34.50545566915' lon='150.40702500892'>
    <tag k='addr:housenumber' v='151/2' />
    <tag k='addr:street' v='Charlotte Street' />
  </node>
  <node id='-281950' action='modify' visible='true' lat='-34.50545566915' lon='150.40702500892'>
    <tag k='addr:housenumber' v='152/2' />
    <tag k='addr:street' v='Charlotte Street' />
  </node>
  <node id='-281951' action='modify' visible='true' lat='-34.50545566915' lon='150.40702500892'>
    <tag k='addr:housenumber' v='149/2' />
    <tag k='addr:street' v='Charlotte Street' />
  </node>
  <node id='-281952' action='modify' visible='true' lat='-34.50545566915' lon='150.40702500892'>
    <tag k='addr:housenumber' v='150/2' />
    <tag k='addr:street' v='Charlotte Street' />
  </node>
  <node id='-281953' action='modify' visible='true' lat='-34.50545566915' lon='150.40702500892'>
    <tag k='addr:housenumber' v='153/2' />
    <tag k='addr:street' v='Charlotte Street' />
  </node>
  <node id='-281954' action='modify' visible='true' lat='-34.50545566915' lon='150.40702500892'>
    <tag k='addr:housenumber' v='154/2' />
    <tag k='addr:street' v='Charlotte Street' />
  </node>
  <node id='-281955' action='modify' visible='true' lat='-34.52519642914' lon='150.39317246398'>
    <tag k='addr:housenumber' v='1/645-653' />
    <tag k='addr:street' v='Moss Vale Road' />
  </node>
  <node id='-281956' action='modify' visible='true' lat='-34.52519642914' lon='150.39317246398'>
    <tag k='addr:housenumber' v='3/645-653' />
    <tag k='addr:street' v='Moss Vale Road' />
  </node>
  <node id='-281957' action='modify' visible='true' lat='-34.52519642914' lon='150.39317246398'>
    <tag k='addr:housenumber' v='645-653' />
    <tag k='addr:street' v='Moss Vale Road' />
  </node>
  <node id='-281958' action='modify' visible='true' lat='-34.52519642914' lon='150.39317246398'>
    <tag k='addr:housenumber' v='2/645-653' />
    <tag k='addr:street' v='Moss Vale Road' />
  </node>
  <node id='-281959' action='modify' visible='true' lat='-34.52519642914' lon='150.39317246398'>
    <tag k='addr:housenumber' v='5/645-653' />
    <tag k='addr:street' v='Moss Vale Road' />
  </node>
  <node id='-281960' action='modify' visible='true' lat='-34.52519642914' lon='150.39317246398'>
    <tag k='addr:housenumber' v='7/645-653' />
    <tag k='addr:street' v='Moss Vale Road' />
  </node>
  <node id='-281961' action='modify' visible='true' lat='-34.52519642914' lon='150.39317246398'>
    <tag k='addr:housenumber' v='8/645-653' />
    <tag k='addr:street' v='Moss Vale Road' />
  </node>
  <node id='-281962' action='modify' visible='true' lat='-34.52519642914' lon='150.39317246398'>
    <tag k='addr:housenumber' v='4/645-653' />
    <tag k='addr:street' v='Moss Vale Road' />
  </node>
  <node id='-281963' action='modify' visible='true' lat='-34.52519642914' lon='150.39317246398'>
    <tag k='addr:housenumber' v='6/645-653' />
    <tag k='addr:street' v='Moss Vale Road' />
  </node>
  <node id='-281964' action='modify' visible='true' lat='-34.49210773184' lon='150.41022072669'>
    <tag k='addr:housenumber' v='2/537' />
    <tag k='addr:street' v='Moss Vale Road' />
  </node>
  <node id='-281965' action='modify' visible='true' lat='-34.49424822115' lon='150.40489809327'>
    <tag k='addr:housenumber' v='17/29' />
    <tag k='addr:street' v='Yean Street' />
  </node>
  <node id='-281966' action='modify' visible='true' lat='-34.49210773184' lon='150.41022072669'>
    <tag k='addr:housenumber' v='3/537' />
    <tag k='addr:street' v='Moss Vale Road' />
  </node>
  <node id='-281967' action='modify' visible='true' lat='-34.49424822115' lon='150.40489809327'>
    <tag k='addr:housenumber' v='6/29' />
    <tag k='addr:street' v='Yean Street' />
  </node>
  <node id='-281968' action='modify' visible='true' lat='-34.49210773184' lon='150.41022072669'>
    <tag k='addr:housenumber' v='537' />
    <tag k='addr:street' v='Moss Vale Road' />
  </node>
  <node id='-281969' action='modify' visible='true' lat='-34.49210773184' lon='150.41022072669'>
    <tag k='addr:housenumber' v='1/537' />
    <tag k='addr:street' v='Moss Vale Road' />
  </node>
  <node id='-281970' action='modify' visible='true' lat='-34.49424822115' lon='150.40489809327'>
    <tag k='addr:housenumber' v='29' />
    <tag k='addr:street' v='Yean Street' />
  </node>
  <node id='-281971' action='modify' visible='true' lat='-34.51270061493' lon='150.40429997515'>
    <tag k='addr:housenumber' v='5/20' />
    <tag k='addr:street' v='Elizabeth Street' />
  </node>
  <node id='-281972' action='modify' visible='true' lat='-34.49424822115' lon='150.40489809327'>
    <tag k='addr:housenumber' v='19/29' />
    <tag k='addr:street' v='Yean Street' />
  </node>
  <node id='-281973' action='modify' visible='true' lat='-34.51270061493' lon='150.40429997515'>
    <tag k='addr:housenumber' v='4/20' />
    <tag k='addr:street' v='Elizabeth Street' />
  </node>
  <node id='-281974' action='modify' visible='true' lat='-34.49424822115' lon='150.40489809327'>
    <tag k='addr:housenumber' v='18/29' />
    <tag k='addr:street' v='Yean Street' />
  </node>
  <node id='-281975' action='modify' visible='true' lat='-34.49210773184' lon='150.41022072669'>
    <tag k='addr:housenumber' v='4/537' />
    <tag k='addr:street' v='Moss Vale Road' />
  </node>
  <node id='-281976' action='modify' visible='true' lat='-34.51270061493' lon='150.40429997515'>
    <tag k='addr:housenumber' v='20' />
    <tag k='addr:street' v='Elizabeth Street' />
  </node>
  <node id='-281977' action='modify' visible='true' lat='-34.49424822115' lon='150.40489809327'>
    <tag k='addr:housenumber' v='5/29' />
    <tag k='addr:street' v='Yean Street' />
  </node>
  <node id='-281978' action='modify' visible='true' lat='-34.49210773184' lon='150.41022072669'>
    <tag k='addr:housenumber' v='5/537' />
    <tag k='addr:street' v='Moss Vale Road' />
  </node>
  <node id='-281979' action='modify' visible='true' lat='-34.51270061493' lon='150.40429997515'>
    <tag k='addr:housenumber' v='6/20' />
    <tag k='addr:street' v='Elizabeth Street' />
  </node>
  <node id='-281980' action='modify' visible='true' lat='-34.49424822115' lon='150.40489809327'>
    <tag k='addr:housenumber' v='20/29' />
    <tag k='addr:street' v='Yean Street' />
  </node>
  <node id='-281981' action='modify' visible='true' lat='-34.51270061493' lon='150.40429997515'>
    <tag k='addr:housenumber' v='1/20' />
    <tag k='addr:street' v='Elizabeth Street' />
  </node>
  <node id='-281982' action='modify' visible='true' lat='-34.49424822115' lon='150.40489809327'>
    <tag k='addr:housenumber' v='14/29' />
    <tag k='addr:street' v='Yean Street' />
  </node>
  <node id='-281983' action='modify' visible='true' lat='-34.49643551899' lon='150.41922728069'>
    <tag k='addr:housenumber' v='36' />
    <tag k='addr:street' v='Burradoo Road' />
  </node>
  <node id='-281984' action='modify' visible='true' lat='-34.49424822115' lon='150.40489809327'>
    <tag k='addr:housenumber' v='13/29' />
    <tag k='addr:street' v='Yean Street' />
  </node>
  <node id='-281985' action='modify' visible='true' lat='-34.51270061493' lon='150.40429997515'>
    <tag k='addr:housenumber' v='3/20' />
    <tag k='addr:street' v='Elizabeth Street' />
  </node>
  <node id='-281986' action='modify' visible='true' lat='-34.49424822115' lon='150.40489809327'>
    <tag k='addr:housenumber' v='16/29' />
    <tag k='addr:street' v='Yean Street' />
  </node>
  <node id='-281987' action='modify' visible='true' lat='-34.51270061493' lon='150.40429997515'>
    <tag k='addr:housenumber' v='2/20' />
    <tag k='addr:street' v='Elizabeth Street' />
  </node>
  <node id='-281988' action='modify' visible='true' lat='-34.49424822115' lon='150.40489809327'>
    <tag k='addr:housenumber' v='15/29' />
    <tag k='addr:street' v='Yean Street' />
  </node>
  <node id='-281989' action='modify' visible='true' lat='-34.49643551899' lon='150.41922728069'>
    <tag k='addr:housenumber' v='4/36' />
    <tag k='addr:street' v='Burradoo Road' />
  </node>
  <node id='-281990' action='modify' visible='true' lat='-34.49424822115' lon='150.40489809327'>
    <tag k='addr:housenumber' v='12C/29' />
    <tag k='addr:street' v='Yean Street' />
  </node>
  <node id='-281991' action='modify' visible='true' lat='-34.49643551899' lon='150.41922728069'>
    <tag k='addr:housenumber' v='5/36' />
    <tag k='addr:street' v='Burradoo Road' />
  </node>
  <node id='-281992' action='modify' visible='true' lat='-34.49424822115' lon='150.40489809327'>
    <tag k='addr:housenumber' v='12D/29' />
    <tag k='addr:street' v='Yean Street' />
  </node>
  <node id='-281993' action='modify' visible='true' lat='-34.49643551899' lon='150.41922728069'>
    <tag k='addr:housenumber' v='1/36' />
    <tag k='addr:street' v='Burradoo Road' />
  </node>
  <node id='-281994' action='modify' visible='true' lat='-34.49424822115' lon='150.40489809327'>
    <tag k='addr:housenumber' v='12A/29' />
    <tag k='addr:street' v='Yean Street' />
  </node>
  <node id='-281995' action='modify' visible='true' lat='-34.49643551899' lon='150.41922728069'>
    <tag k='addr:housenumber' v='3/36' />
    <tag k='addr:street' v='Burradoo Road' />
  </node>
  <node id='-281996' action='modify' visible='true' lat='-34.49424822115' lon='150.40489809327'>
    <tag k='addr:housenumber' v='12B/29' />
    <tag k='addr:street' v='Yean Street' />
  </node>
  <node id='-281997' action='modify' visible='true' lat='-34.49424822115' lon='150.40489809327'>
    <tag k='addr:housenumber' v='1/29' />
    <tag k='addr:street' v='Yean Street' />
  </node>
  <node id='-281998' action='modify' visible='true' lat='-34.49424822115' lon='150.40489809327'>
    <tag k='addr:housenumber' v='3/29' />
    <tag k='addr:street' v='Yean Street' />
  </node>
  <node id='-281999' action='modify' visible='true' lat='-34.49643551899' lon='150.41922728069'>
    <tag k='addr:housenumber' v='6/36' />
    <tag k='addr:street' v='Burradoo Road' />
  </node>
  <node id='-282000' action='modify' visible='true' lat='-34.49424822115' lon='150.40489809327'>
    <tag k='addr:housenumber' v='8/29' />
    <tag k='addr:street' v='Yean Street' />
  </node>
  <node id='-282001' action='modify' visible='true' lat='-34.49643551899' lon='150.41922728069'>
    <tag k='addr:housenumber' v='2/36' />
    <tag k='addr:street' v='Burradoo Road' />
  </node>
  <node id='-282002' action='modify' visible='true' lat='-34.49424822115' lon='150.40489809327'>
    <tag k='addr:housenumber' v='7/29' />
    <tag k='addr:street' v='Yean Street' />
  </node>
  <node id='-282003' action='modify' visible='true' lat='-34.49424822115' lon='150.40489809327'>
    <tag k='addr:housenumber' v='1' />
    <tag k='addr:street' v='Arthur Smith Avenue' />
  </node>
  <node id='-282004' action='modify' visible='true' lat='-34.50727752023' lon='150.40409480223'>
    <tag k='addr:housenumber' v='599' />
    <tag k='addr:street' v='Moss Vale Road' />
  </node>
  <node id='-282005' action='modify' visible='true' lat='-34.49424822115' lon='150.40489809327'>
    <tag k='addr:housenumber' v='2' />
    <tag k='addr:street' v='Arthur Smith Avenue' />
  </node>
  <node id='-282006' action='modify' visible='true' lat='-34.49424822115' lon='150.40489809327'>
    <tag k='addr:housenumber' v='2/29' />
    <tag k='addr:street' v='Yean Street' />
  </node>
  <node id='-282007' action='modify' visible='true' lat='-34.49424822115' lon='150.40489809327'>
    <tag k='addr:housenumber' v='4/29' />
    <tag k='addr:street' v='Yean Street' />
  </node>
  <node id='-282008' action='modify' visible='true' lat='-34.50727752023' lon='150.40409480223'>
    <tag k='addr:housenumber' v='3/599' />
    <tag k='addr:street' v='Moss Vale Road' />
  </node>
  <node id='-282009' action='modify' visible='true' lat='-34.49424822115' lon='150.40489809327'>
    <tag k='addr:housenumber' v='5' />
    <tag k='addr:street' v='Arthur Smith Avenue' />
  </node>
  <node id='-282010' action='modify' visible='true' lat='-34.50727752023' lon='150.40409480223'>
    <tag k='addr:housenumber' v='1/599' />
    <tag k='addr:street' v='Moss Vale Road' />
  </node>
  <node id='-282011' action='modify' visible='true' lat='-34.49424822115' lon='150.40489809327'>
    <tag k='addr:housenumber' v='6' />
    <tag k='addr:street' v='Arthur Smith Avenue' />
  </node>
  <node id='-282012' action='modify' visible='true' lat='-34.50727752023' lon='150.40409480223'>
    <tag k='addr:housenumber' v='4/599' />
    <tag k='addr:street' v='Moss Vale Road' />
  </node>
  <node id='-282013' action='modify' visible='true' lat='-34.49424822115' lon='150.40489809327'>
    <tag k='addr:housenumber' v='3' />
    <tag k='addr:street' v='Arthur Smith Avenue' />
  </node>
  <node id='-282014' action='modify' visible='true' lat='-34.50727752023' lon='150.40409480223'>
    <tag k='addr:housenumber' v='2/599' />
    <tag k='addr:street' v='Moss Vale Road' />
  </node>
  <node id='-282015' action='modify' visible='true' lat='-34.49424822115' lon='150.40489809327'>
    <tag k='addr:housenumber' v='4' />
    <tag k='addr:street' v='Arthur Smith Avenue' />
  </node>
  <node id='-282016' action='modify' visible='true' lat='-34.49424822115' lon='150.40489809327'>
    <tag k='addr:housenumber' v='11' />
    <tag k='addr:street' v='Arthur Smith Avenue' />
  </node>
  <node id='-282017' action='modify' visible='true' lat='-34.49424822115' lon='150.40489809327'>
    <tag k='addr:housenumber' v='12' />
    <tag k='addr:street' v='Arthur Smith Avenue' />
  </node>
  <node id='-282018' action='modify' visible='true' lat='-34.49424822115' lon='150.40489809327'>
    <tag k='addr:housenumber' v='7' />
    <tag k='addr:street' v='Arthur Smith Avenue' />
  </node>
  <node id='-282019' action='modify' visible='true' lat='-34.49424822115' lon='150.40489809327'>
    <tag k='addr:housenumber' v='8' />
    <tag k='addr:street' v='Arthur Smith Avenue' />
  </node>
  <node id='-282020' action='modify' visible='true' lat='-34.49424822115' lon='150.40489809327'>
    <tag k='addr:housenumber' v='13' />
    <tag k='addr:street' v='Arthur Smith Avenue' />
  </node>
  <node id='-282021' action='modify' visible='true' lat='-34.49424822115' lon='150.40489809327'>
    <tag k='addr:housenumber' v='14' />
    <tag k='addr:street' v='Arthur Smith Avenue' />
  </node>
  <node id='-282022' action='modify' visible='true' lat='-34.49424822115' lon='150.40489809327'>
    <tag k='addr:housenumber' v='9' />
    <tag k='addr:street' v='Arthur Smith Avenue' />
  </node>
  <node id='-282023' action='modify' visible='true' lat='-34.49424822115' lon='150.40489809327'>
    <tag k='addr:housenumber' v='10' />
    <tag k='addr:street' v='Arthur Smith Avenue' />
  </node>
  <node id='-282024' action='modify' visible='true' lat='-34.49424822115' lon='150.40489809327'>
    <tag k='addr:housenumber' v='17' />
    <tag k='addr:street' v='Arthur Smith Avenue' />
  </node>
  <node id='-282025' action='modify' visible='true' lat='-34.49424822115' lon='150.40489809327'>
    <tag k='addr:housenumber' v='18' />
    <tag k='addr:street' v='Arthur Smith Avenue' />
  </node>
  <node id='-282026' action='modify' visible='true' lat='-34.49424822115' lon='150.40489809327'>
    <tag k='addr:housenumber' v='15' />
    <tag k='addr:street' v='Arthur Smith Avenue' />
  </node>
  <node id='-282027' action='modify' visible='true' lat='-34.49424822115' lon='150.40489809327'>
    <tag k='addr:housenumber' v='16' />
    <tag k='addr:street' v='Arthur Smith Avenue' />
  </node>
  <node id='-282028' action='modify' visible='true' lat='-34.49424822115' lon='150.40489809327'>
    <tag k='addr:housenumber' v='19' />
    <tag k='addr:street' v='Arthur Smith Avenue' />
  </node>
  <node id='-282029' action='modify' visible='true' lat='-34.49424822115' lon='150.40489809327'>
    <tag k='addr:housenumber' v='20' />
    <tag k='addr:street' v='Arthur Smith Avenue' />
  </node>
  <node id='-282030' action='modify' visible='true' lat='-34.50545566915' lon='150.40702500892'>
    <tag k='addr:housenumber' v='5/2' />
    <tag k='addr:street' v='Charlotte Street' />
  </node>
  <node id='-282031' action='modify' visible='true' lat='-34.50545566915' lon='150.40702500892'>
    <tag k='addr:housenumber' v='6/2' />
    <tag k='addr:street' v='Charlotte Street' />
  </node>
  <node id='-282032' action='modify' visible='true' lat='-34.50545566915' lon='150.40702500892'>
    <tag k='addr:housenumber' v='2' />
    <tag k='addr:street' v='Charlotte Street' />
  </node>
  <node id='-282033' action='modify' visible='true' lat='-34.50545566915' lon='150.40702500892'>
    <tag k='addr:housenumber' v='9/2' />
    <tag k='addr:street' v='Charlotte Street' />
  </node>
  <node id='-282034' action='modify' visible='true' lat='-34.50545566915' lon='150.40702500892'>
    <tag k='addr:housenumber' v='10/2' />
    <tag k='addr:street' v='Charlotte Street' />
  </node>
  <node id='-282035' action='modify' visible='true' lat='-34.50545566915' lon='150.40702500892'>
    <tag k='addr:housenumber' v='7/2' />
    <tag k='addr:street' v='Charlotte Street' />
  </node>
  <node id='-282036' action='modify' visible='true' lat='-34.50545566915' lon='150.40702500892'>
    <tag k='addr:housenumber' v='8/2' />
    <tag k='addr:street' v='Charlotte Street' />
  </node>
  <node id='-282037' action='modify' visible='true' lat='-34.50545566915' lon='150.40702500892'>
    <tag k='addr:housenumber' v='14/2' />
    <tag k='addr:street' v='Charlotte Street' />
  </node>
  <node id='-282038' action='modify' visible='true' lat='-34.50545566915' lon='150.40702500892'>
    <tag k='addr:housenumber' v='15/2' />
    <tag k='addr:street' v='Charlotte Street' />
  </node>
  <node id='-282039' action='modify' visible='true' lat='-34.50545566915' lon='150.40702500892'>
    <tag k='addr:housenumber' v='11/2' />
    <tag k='addr:street' v='Charlotte Street' />
  </node>
  <node id='-282040' action='modify' visible='true' lat='-34.50545566915' lon='150.40702500892'>
    <tag k='addr:housenumber' v='12/2' />
    <tag k='addr:street' v='Charlotte Street' />
  </node>
  <node id='-282041' action='modify' visible='true' lat='-34.50545566915' lon='150.40702500892'>
    <tag k='addr:housenumber' v='18/2' />
    <tag k='addr:street' v='Charlotte Street' />
  </node>
  <node id='-282042' action='modify' visible='true' lat='-34.50545566915' lon='150.40702500892'>
    <tag k='addr:housenumber' v='19/2' />
    <tag k='addr:street' v='Charlotte Street' />
  </node>
  <node id='-282043' action='modify' visible='true' lat='-34.50545566915' lon='150.40702500892'>
    <tag k='addr:housenumber' v='16/2' />
    <tag k='addr:street' v='Charlotte Street' />
  </node>
  <node id='-282044' action='modify' visible='true' lat='-34.50545566915' lon='150.40702500892'>
    <tag k='addr:housenumber' v='17/2' />
    <tag k='addr:street' v='Charlotte Street' />
  </node>
  <node id='-282045' action='modify' visible='true' lat='-34.50545566915' lon='150.40702500892'>
    <tag k='addr:housenumber' v='29/2' />
    <tag k='addr:street' v='Charlotte Street' />
  </node>
  <node id='-282046' action='modify' visible='true' lat='-34.50545566915' lon='150.40702500892'>
    <tag k='addr:housenumber' v='30/2' />
    <tag k='addr:street' v='Charlotte Street' />
  </node>
  <node id='-282047' action='modify' visible='true' lat='-34.50545566915' lon='150.40702500892'>
    <tag k='addr:housenumber' v='27/2' />
    <tag k='addr:street' v='Charlotte Street' />
  </node>
  <node id='-282048' action='modify' visible='true' lat='-34.50545566915' lon='150.40702500892'>
    <tag k='addr:housenumber' v='28/2' />
    <tag k='addr:street' v='Charlotte Street' />
  </node>
  <node id='-282049' action='modify' visible='true' lat='-34.50545566915' lon='150.40702500892'>
    <tag k='addr:housenumber' v='33/2' />
    <tag k='addr:street' v='Charlotte Street' />
  </node>
  <node id='-282050' action='modify' visible='true' lat='-34.50545566915' lon='150.40702500892'>
    <tag k='addr:housenumber' v='34/2' />
    <tag k='addr:street' v='Charlotte Street' />
  </node>
  <node id='-282051' action='modify' visible='true' lat='-34.50545566915' lon='150.40702500892'>
    <tag k='addr:housenumber' v='31/2' />
    <tag k='addr:street' v='Charlotte Street' />
  </node>
  <node id='-282052' action='modify' visible='true' lat='-34.50545566915' lon='150.40702500892'>
    <tag k='addr:housenumber' v='32/2' />
    <tag k='addr:street' v='Charlotte Street' />
  </node>
  <node id='-282053' action='modify' visible='true' lat='-34.50545566915' lon='150.40702500892'>
    <tag k='addr:housenumber' v='37/2' />
    <tag k='addr:street' v='Charlotte Street' />
  </node>
  <node id='-282054' action='modify' visible='true' lat='-34.50545566915' lon='150.40702500892'>
    <tag k='addr:housenumber' v='38/2' />
    <tag k='addr:street' v='Charlotte Street' />
  </node>
  <node id='-282055' action='modify' visible='true' lat='-34.50545566915' lon='150.40702500892'>
    <tag k='addr:housenumber' v='35/2' />
    <tag k='addr:street' v='Charlotte Street' />
  </node>
  <node id='-282056' action='modify' visible='true' lat='-34.50545566915' lon='150.40702500892'>
    <tag k='addr:housenumber' v='36/2' />
    <tag k='addr:street' v='Charlotte Street' />
  </node>
  <node id='-282057' action='modify' visible='true' lat='-34.50545566915' lon='150.40702500892'>
    <tag k='addr:housenumber' v='41/2' />
    <tag k='addr:street' v='Charlotte Street' />
  </node>
  <node id='-282058' action='modify' visible='true' lat='-34.50545566915' lon='150.40702500892'>
    <tag k='addr:housenumber' v='42/2' />
    <tag k='addr:street' v='Charlotte Street' />
  </node>
  <node id='-282059' action='modify' visible='true' lat='-34.50545566915' lon='150.40702500892'>
    <tag k='addr:housenumber' v='39/2' />
    <tag k='addr:street' v='Charlotte Street' />
  </node>
  <node id='-282060' action='modify' visible='true' lat='-34.50545566915' lon='150.40702500892'>
    <tag k='addr:housenumber' v='40/2' />
    <tag k='addr:street' v='Charlotte Street' />
  </node>
  <node id='-282061' action='modify' visible='true' lat='-34.50545566915' lon='150.40702500892'>
    <tag k='addr:housenumber' v='45/2' />
    <tag k='addr:street' v='Charlotte Street' />
  </node>
  <node id='-282062' action='modify' visible='true' lat='-34.50545566915' lon='150.40702500892'>
    <tag k='addr:housenumber' v='49/2' />
    <tag k='addr:street' v='Charlotte Street' />
  </node>
  <node id='-282063' action='modify' visible='true' lat='-34.50545566915' lon='150.40702500892'>
    <tag k='addr:housenumber' v='43/2' />
    <tag k='addr:street' v='Charlotte Street' />
  </node>
  <node id='-282064' action='modify' visible='true' lat='-34.50545566915' lon='150.40702500892'>
    <tag k='addr:housenumber' v='44/2' />
    <tag k='addr:street' v='Charlotte Street' />
  </node>
  <node id='-282065' action='modify' visible='true' lat='-34.50545566915' lon='150.40702500892'>
    <tag k='addr:housenumber' v='52/2' />
    <tag k='addr:street' v='Charlotte Street' />
  </node>
  <node id='-282066' action='modify' visible='true' lat='-34.50545566915' lon='150.40702500892'>
    <tag k='addr:housenumber' v='53/2' />
    <tag k='addr:street' v='Charlotte Street' />
  </node>
  <node id='-282067' action='modify' visible='true' lat='-34.50545566915' lon='150.40702500892'>
    <tag k='addr:housenumber' v='50/2' />
    <tag k='addr:street' v='Charlotte Street' />
  </node>
  <node id='-282068' action='modify' visible='true' lat='-34.50545566915' lon='150.40702500892'>
    <tag k='addr:housenumber' v='51/2' />
    <tag k='addr:street' v='Charlotte Street' />
  </node>
  <node id='-282069' action='modify' visible='true' lat='-34.50545566915' lon='150.40702500892'>
    <tag k='addr:housenumber' v='56/2' />
    <tag k='addr:street' v='Charlotte Street' />
  </node>
  <node id='-282070' action='modify' visible='true' lat='-34.50545566915' lon='150.40702500892'>
    <tag k='addr:housenumber' v='57/2' />
    <tag k='addr:street' v='Charlotte Street' />
  </node>
  <node id='-282071' action='modify' visible='true' lat='-34.50545566915' lon='150.40702500892'>
    <tag k='addr:housenumber' v='54/2' />
    <tag k='addr:street' v='Charlotte Street' />
  </node>
  <node id='-282072' action='modify' visible='true' lat='-34.50545566915' lon='150.40702500892'>
    <tag k='addr:housenumber' v='55/2' />
    <tag k='addr:street' v='Charlotte Street' />
  </node>
  <node id='-282073' action='modify' visible='true' lat='-34.50545566915' lon='150.40702500892'>
    <tag k='addr:housenumber' v='60/2' />
    <tag k='addr:street' v='Charlotte Street' />
  </node>
  <node id='-282074' action='modify' visible='true' lat='-34.50545566915' lon='150.40702500892'>
    <tag k='addr:housenumber' v='61/2' />
    <tag k='addr:street' v='Charlotte Street' />
  </node>
  <node id='-282075' action='modify' visible='true' lat='-34.50545566915' lon='150.40702500892'>
    <tag k='addr:housenumber' v='58/2' />
    <tag k='addr:street' v='Charlotte Street' />
  </node>
  <node id='-282076' action='modify' visible='true' lat='-34.50545566915' lon='150.40702500892'>
    <tag k='addr:housenumber' v='59/2' />
    <tag k='addr:street' v='Charlotte Street' />
  </node>
  <node id='-282077' action='modify' visible='true' lat='-34.50545566915' lon='150.40702500892'>
    <tag k='addr:housenumber' v='101/2' />
    <tag k='addr:street' v='Charlotte Street' />
  </node>
  <node id='-282078' action='modify' visible='true' lat='-34.50545566915' lon='150.40702500892'>
    <tag k='addr:housenumber' v='102/2' />
    <tag k='addr:street' v='Charlotte Street' />
  </node>
  <node id='-282079' action='modify' visible='true' lat='-34.50545566915' lon='150.40702500892'>
    <tag k='addr:housenumber' v='62/2' />
    <tag k='addr:street' v='Charlotte Street' />
  </node>
  <node id='-282080' action='modify' visible='true' lat='-34.50545566915' lon='150.40702500892'>
    <tag k='addr:housenumber' v='63/2' />
    <tag k='addr:street' v='Charlotte Street' />
  </node>
  <node id='-282081' action='modify' visible='true' lat='-34.50545566915' lon='150.40702500892'>
    <tag k='addr:housenumber' v='105/2' />
    <tag k='addr:street' v='Charlotte Street' />
  </node>
  <node id='-282082' action='modify' visible='true' lat='-34.50545566915' lon='150.40702500892'>
    <tag k='addr:housenumber' v='106/2' />
    <tag k='addr:street' v='Charlotte Street' />
  </node>
  <node id='-282083' action='modify' visible='true' lat='-34.50545566915' lon='150.40702500892'>
    <tag k='addr:housenumber' v='103/2' />
    <tag k='addr:street' v='Charlotte Street' />
  </node>
  <node id='-282084' action='modify' visible='true' lat='-34.50545566915' lon='150.40702500892'>
    <tag k='addr:housenumber' v='104/2' />
    <tag k='addr:street' v='Charlotte Street' />
  </node>
  <node id='-282085' action='modify' visible='true' lat='-34.50545566915' lon='150.40702500892'>
    <tag k='addr:housenumber' v='109/2' />
    <tag k='addr:street' v='Charlotte Street' />
  </node>
  <node id='-282086' action='modify' visible='true' lat='-34.50545566915' lon='150.40702500892'>
    <tag k='addr:housenumber' v='110/2' />
    <tag k='addr:street' v='Charlotte Street' />
  </node>
  <node id='-282087' action='modify' visible='true' lat='-34.50545566915' lon='150.40702500892'>
    <tag k='addr:housenumber' v='107/2' />
    <tag k='addr:street' v='Charlotte Street' />
  </node>
  <node id='-282088' action='modify' visible='true' lat='-34.50545566915' lon='150.40702500892'>
    <tag k='addr:housenumber' v='108/2' />
    <tag k='addr:street' v='Charlotte Street' />
  </node>
  <node id='-282089' action='modify' visible='true' lat='-34.50545566915' lon='150.40702500892'>
    <tag k='addr:housenumber' v='113/2' />
    <tag k='addr:street' v='Charlotte Street' />
  </node>
  <node id='-282090' action='modify' visible='true' lat='-34.50545566915' lon='150.40702500892'>
    <tag k='addr:housenumber' v='114/2' />
    <tag k='addr:street' v='Charlotte Street' />
  </node>
  <node id='-282091' action='modify' visible='true' lat='-34.50545566915' lon='150.40702500892'>
    <tag k='addr:housenumber' v='111/2' />
    <tag k='addr:street' v='Charlotte Street' />
  </node>
  <node id='-282092' action='modify' visible='true' lat='-34.50545566915' lon='150.40702500892'>
    <tag k='addr:housenumber' v='112/2' />
    <tag k='addr:street' v='Charlotte Street' />
  </node>
  <node id='-282093' action='modify' visible='true' lat='-34.50545566915' lon='150.40702500892'>
    <tag k='addr:housenumber' v='117/2' />
    <tag k='addr:street' v='Charlotte Street' />
  </node>
  <node id='-282094' action='modify' visible='true' lat='-34.50545566915' lon='150.40702500892'>
    <tag k='addr:housenumber' v='118/2' />
    <tag k='addr:street' v='Charlotte Street' />
  </node>
  <node id='-282095' action='modify' visible='true' lat='-34.50545566915' lon='150.40702500892'>
    <tag k='addr:housenumber' v='115/2' />
    <tag k='addr:street' v='Charlotte Street' />
  </node>
  <node id='-282096' action='modify' visible='true' lat='-34.50545566915' lon='150.40702500892'>
    <tag k='addr:housenumber' v='116/2' />
    <tag k='addr:street' v='Charlotte Street' />
  </node>
  <node id='-282097' action='modify' visible='true' lat='-34.50545566915' lon='150.40702500892'>
    <tag k='addr:housenumber' v='121/2' />
    <tag k='addr:street' v='Charlotte Street' />
  </node>
  <node id='-282098' action='modify' visible='true' lat='-34.50545566915' lon='150.40702500892'>
    <tag k='addr:housenumber' v='122/2' />
    <tag k='addr:street' v='Charlotte Street' />
  </node>
  <node id='-282099' action='modify' visible='true' lat='-34.50545566915' lon='150.40702500892'>
    <tag k='addr:housenumber' v='119/2' />
    <tag k='addr:street' v='Charlotte Street' />
  </node>
  <node id='-282100' action='modify' visible='true' lat='-34.50545566915' lon='150.40702500892'>
    <tag k='addr:housenumber' v='120/2' />
    <tag k='addr:street' v='Charlotte Street' />
  </node>
  <node id='-282101' action='modify' visible='true' lat='-34.50545566915' lon='150.40702500892'>
    <tag k='addr:housenumber' v='125/2' />
    <tag k='addr:street' v='Charlotte Street' />
  </node>
  <node id='-282102' action='modify' visible='true' lat='-34.50545566915' lon='150.40702500892'>
    <tag k='addr:housenumber' v='126/2' />
    <tag k='addr:street' v='Charlotte Street' />
  </node>
  <node id='-282103' action='modify' visible='true' lat='-34.50545566915' lon='150.40702500892'>
    <tag k='addr:housenumber' v='123/2' />
    <tag k='addr:street' v='Charlotte Street' />
  </node>
  <node id='-282104' action='modify' visible='true' lat='-34.50545566915' lon='150.40702500892'>
    <tag k='addr:housenumber' v='124/2' />
    <tag k='addr:street' v='Charlotte Street' />
  </node>
  <node id='-282105' action='modify' visible='true' lat='-34.50545566915' lon='150.40702500892'>
    <tag k='addr:housenumber' v='129/2' />
    <tag k='addr:street' v='Charlotte Street' />
  </node>
  <node id='-282106' action='modify' visible='true' lat='-34.50545566915' lon='150.40702500892'>
    <tag k='addr:housenumber' v='130/2' />
    <tag k='addr:street' v='Charlotte Street' />
  </node>
  <node id='-282107' action='modify' visible='true' lat='-34.50545566915' lon='150.40702500892'>
    <tag k='addr:housenumber' v='127/2' />
    <tag k='addr:street' v='Charlotte Street' />
  </node>
  <node id='-282108' action='modify' visible='true' lat='-34.50545566915' lon='150.40702500892'>
    <tag k='addr:housenumber' v='128/2' />
    <tag k='addr:street' v='Charlotte Street' />
  </node>
  <node id='-282109' action='modify' visible='true' lat='-34.50545566915' lon='150.40702500892'>
    <tag k='addr:housenumber' v='133/2' />
    <tag k='addr:street' v='Charlotte Street' />
  </node>
  <node id='-282110' action='modify' visible='true' lat='-34.50545566915' lon='150.40702500892'>
    <tag k='addr:housenumber' v='134/2' />
    <tag k='addr:street' v='Charlotte Street' />
  </node>
  <node id='-282111' action='modify' visible='true' lat='-34.50545566915' lon='150.40702500892'>
    <tag k='addr:housenumber' v='131/2' />
    <tag k='addr:street' v='Charlotte Street' />
  </node>
  <node id='-282112' action='modify' visible='true' lat='-34.50545566915' lon='150.40702500892'>
    <tag k='addr:housenumber' v='132/2' />
    <tag k='addr:street' v='Charlotte Street' />
  </node>
</osm>
