<?xml version='1.0' encoding='UTF-8'?>
<osm version='0.6' generator='JOSM'>
  <node id='-169582' action='modify' visible='true' lat='-33.73258320591' lon='151.28509465512'>
    <tag k='addr:city' v='Collaroy Plateau' />
    <tag k='addr:housenumber' v='7/118B' />
    <tag k='addr:street' v='Parkes Road' />
  </node>
  <node id='-169583' action='modify' visible='true' lat='-33.73255609812' lon='151.28506730412'>
    <tag k='addr:city' v='Collaroy Plateau' />
    <tag k='addr:housenumber' v='8/118B' />
    <tag k='addr:street' v='Parkes Road' />
  </node>
  <node id='-169584' action='modify' visible='true' lat='-33.73258935075' lon='151.28508185728'>
    <tag k='addr:city' v='Collaroy Plateau' />
    <tag k='addr:housenumber' v='5/118B' />
    <tag k='addr:street' v='Parkes Road' />
  </node>
  <node id='-169585' action='modify' visible='true' lat='-33.73255396404' lon='151.28508185728'>
    <tag k='addr:city' v='Collaroy Plateau' />
    <tag k='addr:housenumber' v='6/118B' />
    <tag k='addr:street' v='Parkes Road' />
  </node>
  <node id='-169586' action='modify' visible='true' lat='-33.73257780223' lon='151.28505780522'>
    <tag k='addr:city' v='Collaroy Plateau' />
    <tag k='addr:housenumber' v='3/118B' />
    <tag k='addr:street' v='Parkes Road' />
  </node>
  <node id='-169587' action='modify' visible='true' lat='-33.73256010887' lon='151.28509465512'>
    <tag k='addr:city' v='Collaroy Plateau' />
    <tag k='addr:housenumber' v='4/118B' />
    <tag k='addr:street' v='Parkes Road' />
  </node>
  <node id='-169588' action='modify' visible='true' lat='-33.72710686253' lon='151.28707469651'>
    <tag k='addr:city' v='Collaroy Plateau' />
    <tag k='addr:housenumber' v='12/67' />
    <tag k='addr:street' v='Veterans Parade' />
  </node>
  <node id='-169589' action='modify' visible='true' lat='-33.73256551255' lon='151.28505780522'>
    <tag k='addr:city' v='Collaroy Plateau' />
    <tag k='addr:housenumber' v='1/118B' />
    <tag k='addr:street' v='Parkes Road' />
  </node>
  <node id='-169590' action='modify' visible='true' lat='-33.73257165739' lon='151.28509970937'>
    <tag k='addr:city' v='Collaroy Plateau' />
    <tag k='addr:housenumber' v='2/118B' />
    <tag k='addr:street' v='Parkes Road' />
  </node>
  <node id='-169591' action='modify' visible='true' lat='-33.72714103647' lon='151.28707469651'>
    <tag k='addr:city' v='Collaroy Plateau' />
    <tag k='addr:housenumber' v='10/67' />
    <tag k='addr:street' v='Veterans Parade' />
  </node>
  <node id='-169592' action='modify' visible='true' lat='-33.7271239495' lon='151.28710297407'>
    <tag k='addr:city' v='Collaroy Plateau' />
    <tag k='addr:housenumber' v='16/67' />
    <tag k='addr:street' v='Veterans Parade' />
  </node>
  <node id='-169593' action='modify' visible='true' lat='-33.7271239495' lon='151.2870597698'>
    <tag k='addr:city' v='Collaroy Plateau' />
    <tag k='addr:housenumber' v='13/67' />
    <tag k='addr:street' v='Veterans Parade' />
  </node>
  <node id='-169594' action='modify' visible='true' lat='-33.72713450983' lon='151.28709884843'>
    <tag k='addr:city' v='Collaroy Plateau' />
    <tag k='addr:housenumber' v='11/67' />
    <tag k='addr:street' v='Veterans Parade' />
  </node>
  <node id='-169595' action='modify' visible='true' lat='-33.72711338917' lon='151.28706389544'>
    <tag k='addr:city' v='Collaroy Plateau' />
    <tag k='addr:housenumber' v='9/67' />
    <tag k='addr:street' v='Veterans Parade' />
  </node>
  <node id='-169596' action='modify' visible='true' lat='-33.7278717634' lon='151.28693319484'>
    <tag k='addr:city' v='Collaroy Plateau' />
    <tag k='addr:housenumber' v='12/63' />
    <tag k='addr:postcode' v='2097' />
    <tag k='addr:street' v='Veterans Parade' />
  </node>
  <node id='-169597' action='modify' visible='true' lat='-33.72714103647' lon='151.28708804736'>
    <tag k='addr:city' v='Collaroy Plateau' />
    <tag k='addr:housenumber' v='17/67' />
    <tag k='addr:street' v='Veterans Parade' />
  </node>
  <node id='-169598' action='modify' visible='true' lat='-33.72784367015' lon='151.28696013249'>
    <tag k='addr:city' v='Collaroy Plateau' />
    <tag k='addr:housenumber' v='13/63' />
    <tag k='addr:postcode' v='2097' />
    <tag k='addr:street' v='Veterans Parade' />
  </node>
  <node id='-169599' action='modify' visible='true' lat='-33.72710686253' lon='151.28708804736'>
    <tag k='addr:city' v='Collaroy Plateau' />
    <tag k='addr:housenumber' v='14/67' />
    <tag k='addr:street' v='Veterans Parade' />
  </node>
  <node id='-169600' action='modify' visible='true' lat='-33.72785771677' lon='151.28692506135'>
    <tag k='addr:city' v='Collaroy Plateau' />
    <tag k='addr:housenumber' v='10/63' />
    <tag k='addr:postcode' v='2097' />
    <tag k='addr:street' v='Veterans Parade' />
  </node>
  <node id='-169601' action='modify' visible='true' lat='-33.72785771677' lon='151.28696826598'>
    <tag k='addr:city' v='Collaroy Plateau' />
    <tag k='addr:housenumber' v='11/63' />
    <tag k='addr:postcode' v='2097' />
    <tag k='addr:street' v='Veterans Parade' />
  </node>
  <node id='-169602' action='modify' visible='true' lat='-33.72711338917' lon='151.28709884843'>
    <tag k='addr:city' v='Collaroy Plateau' />
    <tag k='addr:housenumber' v='15/67' />
    <tag k='addr:street' v='Veterans Parade' />
  </node>
  <node id='-169603' action='modify' visible='true' lat='-33.72787523262' lon='151.2869418567'>
    <tag k='addr:city' v='Collaroy Plateau' />
    <tag k='addr:housenumber' v='8/63' />
    <tag k='addr:postcode' v='2097' />
    <tag k='addr:street' v='Veterans Parade' />
  </node>
  <node id='-169604' action='modify' visible='true' lat='-33.72784020092' lon='151.28695147063'>
    <tag k='addr:city' v='Collaroy Plateau' />
    <tag k='addr:housenumber' v='9/63' />
    <tag k='addr:postcode' v='2097' />
    <tag k='addr:street' v='Veterans Parade' />
  </node>
  <node id='-169605' action='modify' visible='true' lat='-33.73079974366' lon='151.29233767177'>
    <tag k='addr:city' v='Collaroy Plateau' />
    <tag k='addr:housenumber' v='1/18' />
    <tag k='addr:street' v='Aubreen Street' />
  </node>
  <node id='-169606' action='modify' visible='true' lat='-33.72786551206' lon='151.28692720065'>
    <tag k='addr:city' v='Collaroy Plateau' />
    <tag k='addr:housenumber' v='6/63' />
    <tag k='addr:postcode' v='2097' />
    <tag k='addr:street' v='Veterans Parade' />
  </node>
  <node id='-169607' action='modify' visible='true' lat='-33.72784992148' lon='151.28696612668'>
    <tag k='addr:city' v='Collaroy Plateau' />
    <tag k='addr:housenumber' v='7/63' />
    <tag k='addr:postcode' v='2097' />
    <tag k='addr:street' v='Veterans Parade' />
  </node>
  <node id='-169608' action='modify' visible='true' lat='-33.73078702192' lon='151.29235532531'>
    <tag k='addr:city' v='Collaroy Plateau' />
    <tag k='addr:housenumber' v='3/18' />
    <tag k='addr:street' v='Aubreen Street' />
  </node>
  <node id='-169609' action='modify' visible='true' lat='-33.72784367015' lon='151.28693319484'>
    <tag k='addr:city' v='Collaroy Plateau' />
    <tag k='addr:housenumber' v='4/63' />
    <tag k='addr:postcode' v='2097' />
    <tag k='addr:street' v='Veterans Parade' />
  </node>
  <node id='-169610' action='modify' visible='true' lat='-33.73081838338' lon='151.29234425275'>
    <tag k='addr:city' v='Collaroy Plateau' />
    <tag k='addr:housenumber' v='2/18' />
    <tag k='addr:street' v='Aubreen Street' />
  </node>
  <node id='-169611' action='modify' visible='true' lat='-33.72786551206' lon='151.28696612668'>
    <tag k='addr:city' v='Collaroy Plateau' />
    <tag k='addr:housenumber' v='5/63' />
    <tag k='addr:postcode' v='2097' />
    <tag k='addr:street' v='Veterans Parade' />
  </node>
  <node id='-169612' action='modify' visible='true' lat='-33.73079509203' lon='151.2923765734'>
    <tag k='addr:city' v='Collaroy Plateau' />
    <tag k='addr:housenumber' v='5/18' />
    <tag k='addr:street' v='Aubreen Street' />
  </node>
  <node id='-169613' action='modify' visible='true' lat='-33.72784020092' lon='151.2869418567'>
    <tag k='addr:city' v='Collaroy Plateau' />
    <tag k='addr:housenumber' v='2/63' />
    <tag k='addr:postcode' v='2097' />
    <tag k='addr:street' v='Veterans Parade' />
  </node>
  <node id='-169614' action='modify' visible='true' lat='-33.73080986704' lon='151.29233767177'>
    <tag k='addr:city' v='Collaroy Plateau' />
    <tag k='addr:housenumber' v='4/18' />
    <tag k='addr:street' v='Aubreen Street' />
  </node>
  <node id='-169615' action='modify' visible='true' lat='-33.7278717634' lon='151.28696013249'>
    <tag k='addr:city' v='Collaroy Plateau' />
    <tag k='addr:housenumber' v='3/63' />
    <tag k='addr:postcode' v='2097' />
    <tag k='addr:street' v='Veterans Parade' />
  </node>
  <node id='-169616' action='modify' visible='true' lat='-33.73081451867' lon='151.2923765734'>
    <tag k='addr:city' v='Collaroy Plateau' />
    <tag k='addr:housenumber' v='7/18' />
    <tag k='addr:street' v='Aubreen Street' />
  </node>
  <node id='-169617' action='modify' visible='true' lat='-33.73079122732' lon='151.29234425275'>
    <tag k='addr:city' v='Collaroy Plateau' />
    <tag k='addr:housenumber' v='6/18' />
    <tag k='addr:street' v='Aubreen Street' />
  </node>
  <node id='-169618' action='modify' visible='true' lat='-33.72784992148' lon='151.28692720065'>
    <tag k='addr:city' v='Collaroy Plateau' />
    <tag k='addr:housenumber' v='1/63' />
    <tag k='addr:postcode' v='2097' />
    <tag k='addr:street' v='Veterans Parade' />
  </node>
  <node id='-169619' action='modify' visible='true' lat='-33.73082258879' lon='151.29235532531'>
    <tag k='addr:city' v='Collaroy Plateau' />
    <tag k='addr:housenumber' v='9/18' />
    <tag k='addr:street' v='Aubreen Street' />
  </node>
  <node id='-169620' action='modify' visible='true' lat='-33.73078846262' lon='151.29236737398'>
    <tag k='addr:city' v='Collaroy Plateau' />
    <tag k='addr:housenumber' v='8/18' />
    <tag k='addr:street' v='Aubreen Street' />
  </node>
  <node id='-169621' action='modify' visible='true' lat='-33.73080480535' lon='151.2923800028'>
    <tag k='addr:city' v='Collaroy Plateau' />
    <tag k='addr:housenumber' v='10/20' />
    <tag k='addr:street' v='Aubreen Street' />
  </node>
</osm>
